testbench.vcd
$date
	Mon Dec 02 22:19:14 2024
$end
$version
	Icarus Verilog
$end
$timescale
	1s
$end
$scope module top_proc_tb $end
$var wire 32 ! instr [31:0] $end
$var wire 32 " dWriteData [31:0] $end
$var wire 32 # dAddress [31:0] $end
$var wire 3 $ current_state [2:0] $end
$var wire 32 % WriteBackData [31:0] $end
$var wire 32 & PC [31:0] $end
$var wire 1 ' MemWrite $end
$var wire 1 ( MemRead $end
$var wire 4 ) ALUCtrl [3:0] $end
$var reg 1 * clk $end
$var reg 32 + dReadData [31:0] $end
$var reg 1 , rst $end
$scope module uut $end
$var wire 1 * clk $end
$var wire 32 - dReadData [31:0] $end
$var wire 1 , rst $end
$var wire 1 . zero $end
$var wire 7 / opcode [6:0] $end
$var wire 32 0 instr [31:0] $end
$var wire 7 1 funct7 [6:0] $end
$var wire 3 2 funct3 [2:0] $end
$var wire 32 3 dWriteData [31:0] $end
$var wire 32 4 dAddress [31:0] $end
$var wire 32 5 WriteBackData [31:0] $end
$var wire 32 6 PC [31:0] $end
$var parameter 4 7 ALUOP_ADD $end
$var parameter 4 8 ALUOP_AND $end
$var parameter 4 9 ALUOP_ASR $end
$var parameter 4 : ALUOP_LSL $end
$var parameter 4 ; ALUOP_LSR $end
$var parameter 4 < ALUOP_OR $end
$var parameter 4 = ALUOP_SLT $end
$var parameter 4 > ALUOP_SUB $end
$var parameter 4 ? ALUOP_XOR $end
$var parameter 3 @ EX $end
$var parameter 3 A ID $end
$var parameter 3 B IF $end
$var parameter 32 C INITIAL_PC $end
$var parameter 3 D MEM $end
$var parameter 7 E OPCODE_B_TYPE $end
$var parameter 7 F OPCODE_I_TYPE $end
$var parameter 7 G OPCODE_LW $end
$var parameter 7 H OPCODE_R_TYPE $end
$var parameter 7 I OPCODE_S_TYPE $end
$var parameter 3 J WB $end
$var reg 4 K ALUCtrl [3:0] $end
$var reg 1 L ALUSrc $end
$var reg 1 ( MemRead $end
$var reg 1 ' MemWrite $end
$var reg 1 M MemtoReg $end
$var reg 1 N PCSrc $end
$var reg 1 O RegWrite $end
$var reg 3 P current_state [2:0] $end
$var reg 1 Q loadPC $end
$var reg 3 R next_state [2:0] $end
$scope module DATAPATH $end
$var wire 4 S ALUCtrl [3:0] $end
$var wire 1 L ALUSrc $end
$var wire 1 M MemtoReg $end
$var wire 1 N PCSrc $end
$var wire 1 O RegWrite $end
$var wire 32 T WriteBackData [31:0] $end
$var wire 32 U branch_offset [31:0] $end
$var wire 1 * clk $end
$var wire 32 V dReadData [31:0] $end
$var wire 1 Q loadPC $end
$var wire 1 W rst $end
$var wire 1 . zero $end
$var wire 5 X writeReg [4:0] $end
$var wire 32 Y selected_imm [31:0] $end
$var wire 5 Z readReg2 [4:0] $end
$var wire 5 [ readReg1 [4:0] $end
$var wire 32 \ readData2 [31:0] $end
$var wire 32 ] readData1 [31:0] $end
$var wire 7 ^ opcode [6:0] $end
$var wire 32 _ op2 [31:0] $end
$var wire 32 ` instr [31:0] $end
$var wire 32 a imm_S [31:0] $end
$var wire 32 b imm_I [31:0] $end
$var wire 32 c imm_B [31:0] $end
$var wire 32 d dWriteData [31:0] $end
$var wire 32 e ALU_result [31:0] $end
$var parameter 32 f DATAWIDTH $end
$var parameter 32 g INITIAL_PC $end
$var parameter 7 h OPCODE_B_TYPE $end
$var parameter 7 i OPCODE_I_TYPE $end
$var parameter 7 j OPCODE_LW $end
$var parameter 7 k OPCODE_S_TYPE $end
$var reg 32 l PC [31:0] $end
$var reg 32 m dAddress [31:0] $end
$scope module ALU $end
$var wire 4 n alu_op [3:0] $end
$var wire 32 o op2 [31:0] $end
$var wire 32 p result [31:0] $end
$var wire 1 . zero $end
$var wire 32 q op1 [31:0] $end
$var parameter 4 r ALUOP_ADD $end
$var parameter 4 s ALUOP_AND $end
$var parameter 4 t ALUOP_ASR $end
$var parameter 4 u ALUOP_LSL $end
$var parameter 4 v ALUOP_LSR $end
$var parameter 4 w ALUOP_OR $end
$var parameter 4 x ALUOP_SLT $end
$var parameter 4 y ALUOP_SUB $end
$var parameter 4 z ALUOP_XOR $end
$var reg 32 { res [31:0] $end
$upscope $end
$scope module rf $end
$var wire 1 * clk $end
$var wire 5 | readReg1 [4:0] $end
$var wire 5 } readReg2 [4:0] $end
$var wire 1 O write $end
$var wire 32 ~ writeData [31:0] $end
$var wire 5 !" writeReg [4:0] $end
$var parameter 32 "" DATAWIDTH $end
$var reg 32 #" readData1 [31:0] $end
$var reg 32 $" readData2 [31:0] $end
$var integer 32 %" i [31:0] $end
$upscope $end
$upscope $end
$scope module RAM $end
$var wire 9 &" addr [8:0] $end
$var wire 1 * clk $end
$var wire 32 '" din [31:0] $end
$var wire 1 ' we $end
$var reg 32 (" dout [31:0] $end
$upscope $end
$scope module ROM $end
$var wire 9 )" addr [8:0] $end
$var wire 1 * clk $end
$var reg 32 *" dout [31:0] $end
$upscope $end
$upscope $end
$upscope $end
$enddefinitions $end
$comment Show the parameter values. $end
$dumpall
b100000 ""
b101 z
b110 y
b100 x
b1 w
b1000 v
b1001 u
b1010 t
b0 s
b10 r
b100011 k
b11 j
b10011 i
b1100011 h
b10000000000000000000000 g
b100000 f
b100 J
b100011 I
b110011 H
b11 G
b10011 F
b1100011 E
b11 D
b10000000000000000000000 C
b0 B
b1 A
b10 @
b101 ?
b110 >
b100 =
b1 <
b1000 ;
b1001 :
b1010 9
b0 8
b10 7
$end
#10
$dumpvars
b11100000000000010010011 *"
b0 )"
bx ("
bx '"
b0 &"
b100000 %"
bx $"
bx #"
b1 !"
bx ~
b111 }
b0 |
bx {
bx q
bx p
bx o
bx n
bx m
b10000000000000000000000 l
bx e
bx d
b100000000000 c
b111 b
b1 a
b11100000000000010010011 `
bx _
b10011 ^
bx ]
bx \
b0 [
b111 Z
b111 Y
b1 X
zW
bx V
b100000000000 U
bx T
bx S
b1 R
0Q
b0 P
0O
0N
0M
0L
bx K
b10000000000000000000000 6
bx 5
bx 4
bx 3
b0 2
b0 1
b11100000000000010010011 0
b10011 /
x.
bx -
0,
b0 +
0*
bx )
0(
0'
b10000000000000000000000 &
bx %
b0 $
bx #
bx "
b11100000000000010010011 !
$end
#15
b10 )
b10 K
b10 S
b10 n
b10 R
b1 $
b1 P
1.
b0 %
b0 5
b0 T
b0 "
b0 3
b0 d
b0 ~
b0 '"
b0 _
b0 o
b0 e
b0 p
b0 {
b0 \
b0 $"
b0 ]
b0 q
b0 #"
1*
#20
0*
#25
0.
b111 %
b111 5
b111 T
b111 "
b111 3
b111 d
b111 ~
b111 '"
b111 e
b111 p
b111 {
b111 _
b111 o
1L
b100 R
b10 $
b10 P
1*
#30
0*
#35
1Q
b0 R
b100 $
b100 P
1*
#40
0*
#45
1.
b0 %
b0 5
b0 T
b0 "
b0 3
b0 d
b0 ~
b0 '"
b0 e
b0 p
b0 {
b0 _
b0 o
0Q
0L
b1 R
b0 $
b0 P
b100 &"
b100 )"
b10000000000000000000100 &
b10000000000000000000100 6
b10000000000000000000100 l
1*
#50
0*
#55
b10101 Y
b10 X
b10 !"
b10101 Z
b10101 }
b10 U
b10 c
b10 a
b10101 b
b10 R
b1010100000000000100010011 !
b1010100000000000100010011 0
b1010100000000000100010011 `
b1010100000000000100010011 *"
b1 $
b1 P
1*
#60
0*
#65
0.
b10101 %
b10101 5
b10101 T
b10101 "
b10101 3
b10101 d
b10101 ~
b10101 '"
b10101 e
b10101 p
b10101 {
b10101 _
b10101 o
1L
b100 R
b10 $
b10 P
1*
#70
0*
#75
1Q
b0 R
b100 $
b100 P
1*
#80
0*
#85
1.
b0 %
b0 5
b0 T
b0 "
b0 3
b0 d
b0 ~
b0 '"
b0 e
b0 p
b0 {
b0 _
b0 o
0Q
0L
b1 R
b0 $
b0 P
b1000 &"
b1000 )"
b10000000000000000001000 &
b10000000000000000001000 6
b10000000000000000001000 l
1*
#90
0*
#95
b10 Y
b11 X
b11 !"
b10 Z
b10 }
b1 [
b1 |
b100000000010 U
b100000000010 c
b11 a
b10 b
b110011 ^
b110011 /
b10 R
b1000001000000110110011 !
b1000001000000110110011 0
b1000001000000110110011 `
b1000001000000110110011 *"
b1 $
b1 P
1*
#100
0*
#105
b100 R
b10 $
b10 P
1*
#110
0*
#115
1Q
b0 R
b100 $
b100 P
1*
#120
0*
#125
0Q
b1 R
b0 $
b0 P
b1100 &"
b1100 )"
b10000000000000000001100 &
b10000000000000000001100 6
b10000000000000000001100 l
1*
#130
0*
#135
b11111111111111111111111111110111 Y
b100 X
b100 !"
b10111 Z
b10111 }
b0 [
b0 |
b11111111111111111111011111100100 U
b11111111111111111111011111100100 c
b11111111111111111111111111100100 a
b11111111111111111111111111110111 b
b10011 ^
b1111111 1
b10011 /
b10 R
b11111111011100000000001000010011 !
b11111111011100000000001000010011 0
b11111111011100000000001000010011 `
b11111111011100000000001000010011 *"
b1 $
b1 P
1*
#140
0*
#145
0.
b11111111111111111111111111110111 %
b11111111111111111111111111110111 5
b11111111111111111111111111110111 T
b11111111111111111111111111110111 "
b11111111111111111111111111110111 3
b11111111111111111111111111110111 d
b11111111111111111111111111110111 ~
b11111111111111111111111111110111 '"
b11111111111111111111111111110111 e
b11111111111111111111111111110111 p
b11111111111111111111111111110111 {
b11111111111111111111111111110111 _
b11111111111111111111111111110111 o
1L
b100 R
b10 $
b10 P
1*
#150
0*
#155
1Q
b0 R
b100 $
b100 P
1*
#160
0*
#165
1.
b0 %
b0 5
b0 T
b0 "
b0 3
b0 d
b0 ~
b0 '"
b0 e
b0 p
b0 {
b0 _
b0 o
0Q
0L
b1 R
b0 $
b0 P
b10000 &"
b10000 )"
b10000000000000000010000 &
b10000000000000000010000 6
b10000000000000000010000 l
1*
#170
0*
#175
b11111111111111111111111111101111 Y
b101 X
b101 !"
b1111 Z
b1111 }
b10 [
b10 |
b11111111111111111111111111100100 U
b11111111111111111111111111100100 c
b11111111111111111111111111100101 a
b11111111111111111111111111101111 b
b10 R
b11111110111100010000001010010011 !
b11111110111100010000001010010011 0
b11111110111100010000001010010011 `
b11111110111100010000001010010011 *"
b1 $
b1 P
1*
#180
0*
#185
0.
b11111111111111111111111111101111 %
b11111111111111111111111111101111 5
b11111111111111111111111111101111 T
b11111111111111111111111111101111 "
b11111111111111111111111111101111 3
b11111111111111111111111111101111 d
b11111111111111111111111111101111 ~
b11111111111111111111111111101111 '"
b11111111111111111111111111101111 e
b11111111111111111111111111101111 p
b11111111111111111111111111101111 {
b11111111111111111111111111101111 _
b11111111111111111111111111101111 o
1L
b100 R
b10 $
b10 P
1*
#190
0*
#195
1Q
b0 R
b100 $
b100 P
1*
#200
0*
#205
1.
b0 %
b0 5
b0 T
b0 "
b0 3
b0 d
b0 ~
b0 '"
b0 e
b0 p
b0 {
b0 _
b0 o
0Q
0L
b1 R
b0 $
b0 P
b10100 &"
b10100 )"
b10000000000000000010100 &
b10000000000000000010100 6
b10000000000000000010100 l
1*
#210
0*
#215
b100 Y
b110 X
b110 !"
b100 Z
b100 }
b101 [
b101 |
b110 U
b110 c
b110 a
b100 b
b110011 ^
b0 1
b110011 /
b10 R
b10000101000001100110011 !
b10000101000001100110011 0
b10000101000001100110011 `
b10000101000001100110011 *"
b1 $
b1 P
1*
#220
0*
#225
b100 R
b10 $
b10 P
1*
#230
0*
#235
1Q
b0 R
b100 $
b100 P
1*
#240
0*
#245
0Q
b1 R
b0 $
b0 P
b11000 &"
b11000 )"
b10000000000000000011000 &
b10000000000000000011000 6
b10000000000000000011000 l
1*
#250
0*
#255
b10000000010 Y
b110 )
b110 K
b110 S
b110 n
b111 X
b111 !"
b10 Z
b10 }
b11 [
b11 |
b110000000110 U
b110000000110 c
b10000000111 a
b10000000010 b
b100000 1
b10 R
b1000000001000011000001110110011 !
b1000000001000011000001110110011 0
b1000000001000011000001110110011 `
b1000000001000011000001110110011 *"
b1 $
b1 P
1*
#260
0*
#265
b100 R
b10 $
b10 P
1*
#270
0*
#275
1Q
b0 R
b100 $
b100 P
1*
#280
0*
#285
0Q
b1 R
b0 $
b0 P
b11100 &"
b11100 )"
b10000000000000000011100 &
b10000000000000000011100 6
b10000000000000000011100 l
1*
#290
0*
#295
b101 Y
b1001 )
b1001 K
b1001 S
b1001 n
b1000 X
b1000 !"
b101 Z
b101 }
b111 [
b111 |
b1000 U
b1000 c
b1000 a
b101 b
b0 1
b1 2
b10 R
b10100111001010000110011 !
b10100111001010000110011 0
b10100111001010000110011 `
b10100111001010000110011 *"
b1 $
b1 P
1*
#300
0*
#305
b100 R
b10 $
b10 P
1*
#310
0*
#315
1Q
b0 R
b100 $
b100 P
1*
#320
0*
#325
0Q
b1 R
b0 $
b0 P
b100000 &"
b100000 )"
b10000000000000000100000 &
b10000000000000000100000 6
b10000000000000000100000 l
1*
#330
0*
#335
b1000 Y
b100 )
b100 K
b100 S
b100 n
b1001 X
b1001 !"
b1000 Z
b1000 }
b100 [
b100 |
b100000001000 U
b100000001000 c
b1001 a
b1000 b
b10 2
b10 R
b100000100010010010110011 !
b100000100010010010110011 0
b100000100010010010110011 `
b100000100010010010110011 *"
b1 $
b1 P
1*
#340
0*
#345
b100 R
b10 $
b10 P
1*
#350
0*
#355
1Q
b0 R
b100 $
b100 P
1*
#360
0*
#365
0Q
b1 R
b0 $
b0 P
b100100 &"
b100100 )"
b10000000000000000100100 &
b10000000000000000100100 6
b10000000000000000100100 l
1*
#370
0*
#375
b10 Y
b101 )
b101 K
b101 S
b101 n
b1010 X
b1010 !"
b10 Z
b10 }
b1000 [
b1000 |
b1010 U
b1010 c
b1010 a
b10 b
b100 2
b10 R
b1001000100010100110011 !
b1001000100010100110011 0
b1001000100010100110011 `
b1001000100010100110011 *"
b1 $
b1 P
1*
#380
0*
#385
b100 R
b10 $
b10 P
1*
#390
0*
#395
1Q
b0 R
b100 $
b100 P
1*
#400
0*
#405
0Q
b1 R
b0 $
b0 P
b101000 &"
b101000 )"
b10000000000000000101000 &
b10000000000000000101000 6
b10000000000000000101000 l
1*
#410
0*
#415
b1000 Y
b0 )
b0 K
b0 S
b0 n
b1011 X
b1011 !"
b1000 Z
b1000 }
b1010 [
b1010 |
b100000001010 U
b100000001010 c
b1011 a
b1000 b
b111 2
b10 R
b100001010111010110110011 !
b100001010111010110110011 0
b100001010111010110110011 `
b100001010111010110110011 *"
b1 $
b1 P
1*
#420
0*
#425
b100 R
b10 $
b10 P
1*
#430
0*
#435
1Q
b0 R
b100 $
b100 P
1*
#440
0*
#445
0Q
b1 R
b0 $
b0 P
b101100 &"
b101100 )"
b10000000000000000101100 &
b10000000000000000101100 6
b10000000000000000101100 l
1*
#450
0*
#455
b1001 Y
b1000 )
b1000 K
b1000 S
b1000 n
b1100 X
b1100 !"
b1001 Z
b1001 }
b1011 [
b1011 |
b1100 U
b1100 c
b1100 a
b1001 b
b101 2
b10 R
b100101011101011000110011 !
b100101011101011000110011 0
b100101011101011000110011 `
b100101011101011000110011 *"
b1 $
b1 P
1*
#460
0*
#465
b100 R
b10 $
b10 P
1*
#470
0*
#475
1Q
b0 R
b100 $
b100 P
1*
#480
0*
#485
0Q
b1 R
b0 $
b0 P
b110000 &"
b110000 )"
b10000000000000000110000 &
b10000000000000000110000 6
b10000000000000000110000 l
1*
#490
0*
#495
b11 Y
b1 )
b1 K
b1 S
b1 n
b1101 X
b1101 !"
b11 Z
b11 }
b1100 [
b1100 |
b100000001100 U
b100000001100 c
b1101 a
b11 b
b110 2
b10 R
b1101100110011010110011 !
b1101100110011010110011 0
b1101100110011010110011 `
b1101100110011010110011 *"
b1 $
b1 P
1*
#500
0*
#505
b100 R
b10 $
b10 P
1*
#510
0*
#515
1Q
b0 R
b100 $
b100 P
1*
#520
0*
#525
0Q
b1 R
b0 $
b0 P
b110100 &"
b110100 )"
b10000000000000000110100 &
b10000000000000000110100 6
b10000000000000000110100 l
1*
#530
0*
#535
b10000001001 Y
b1010 )
b1010 K
b1010 S
b1010 n
b1110 X
b1110 !"
b1001 Z
b1001 }
b100 [
b100 |
b10000001110 U
b10000001110 c
b10000001110 a
b10000001001 b
b100000 1
b101 2
b10 R
b1000000100100100101011100110011 !
b1000000100100100101011100110011 0
b1000000100100100101011100110011 `
b1000000100100100101011100110011 *"
b1 $
b1 P
1*
#540
0*
#545
b100 R
b10 $
b10 P
1*
#550
0*
#555
1Q
b0 R
b100 $
b100 P
1*
#560
0*
#565
0Q
b1 R
b0 $
b0 P
b111000 &"
b111000 )"
b10000000000000000111000 &
b10000000000000000111000 6
b10000000000000000111000 l
1*
#570
0*
#575
b0 Y
b10 )
b10 K
b10 S
b10 n
b0 X
b0 !"
b1011 Z
b1011 }
b101 [
b101 |
b0 U
b0 c
b0 a
b1011 b
b100011 ^
b0 1
b10 2
b100011 /
b10 R
b101100101010000000100011 !
b101100101010000000100011 0
b101100101010000000100011 `
b101100101010000000100011 *"
b1 $
b1 P
1*
#580
0*
#585
1L
b11 R
b10 $
b10 P
1*
#590
0*
#595
1'
b100 R
b11 $
b11 P
1*
#600
0*
#605
1Q
b0 R
b100 $
b100 P
1*
#610
0*
#615
0Q
0L
0'
b1 R
b0 $
b0 P
b111100 &"
b111100 )"
b10000000000000000111100 &
b10000000000000000111100 6
b10000000000000000111100 l
1*
#620
0*
#625
b1111 X
b1111 !"
b0 Z
b0 }
b100000001110 U
b100000001110 c
b1111 a
b0 b
b11 ^
b11 /
b10 R
b101010011110000011 !
b101010011110000011 0
b101010011110000011 `
b101010011110000011 *"
b1 $
b1 P
1*
#630
0*
#635
bx %
bx 5
bx T
bx "
bx 3
bx d
bx ~
bx '"
1M
1L
b11 R
b10 $
b10 P
1*
#640
0*
#645
1(
b100 R
b11 $
b11 P
1*
#650
0*
#655
1O
1Q
b0 R
b100 $
b100 P
1*
#660
0*
#665
b0 %
b0 5
b0 T
b0 "
b0 3
b0 d
b0 ~
b0 '"
0Q
0M
0L
0O
0(
b1 R
b0 $
b0 P
b1000000 &"
b1000000 )"
b10000000000000001000000 &
b10000000000000001000000 6
b10000000000000001000000 l
1*
#670
0*
#675
b11111111111111111111111111010011 Y
b0 )
b0 K
b0 S
b0 n
b10000 X
b10000 !"
b10011 Z
b10011 }
b1000 [
b1000 |
b11111111111111111111011111010000 U
b11111111111111111111011111010000 c
b11111111111111111111111111010000 a
b11111111111111111111111111010011 b
b10011 ^
b1111110 1
b111 2
b10011 /
b10 R
b11111101001101000111100000010011 !
b11111101001101000111100000010011 0
b11111101001101000111100000010011 `
b11111101001101000111100000010011 *"
b1 $
b1 P
1*
#680
0*
#685
b11111111111111111111111111010011 _
b11111111111111111111111111010011 o
1L
b100 R
b10 $
b10 P
1*
#690
0*
#695
1Q
b0 R
b100 $
b100 P
1*
#700
0*
#705
b0 _
b0 o
0Q
0L
b1 R
b0 $
b0 P
b1000100 &"
b1000100 )"
b10000000000000001000100 &
b10000000000000001000100 6
b10000000000000001000100 l
1*
#710
0*
#715
b10110 Y
b1 )
b1 K
b1 S
b1 n
b10001 X
b10001 !"
b10110 Z
b10110 }
b10000 [
b10000 |
b100000010000 U
b100000010000 c
b10001 a
b10110 b
b0 1
b110 2
b10 R
b1011010000110100010010011 !
b1011010000110100010010011 0
b1011010000110100010010011 `
b1011010000110100010010011 *"
b1 $
b1 P
1*
#720
0*
#725
0.
b10110 %
b10110 5
b10110 T
b10110 "
b10110 3
b10110 d
b10110 ~
b10110 '"
b10110 e
b10110 p
b10110 {
b10110 _
b10110 o
1L
b100 R
b10 $
b10 P
1*
#730
0*
#735
1Q
b0 R
b100 $
b100 P
1*
#740
0*
#745
1.
b0 %
b0 5
b0 T
b0 "
b0 3
b0 d
b0 ~
b0 '"
b0 e
b0 p
b0 {
b0 _
b0 o
0Q
0L
b1 R
b0 $
b0 P
b1001000 &"
b1001000 )"
b10000000000000001001000 &
b10000000000000001001000 6
b10000000000000001001000 l
1*
#750
0*
#755
b1 Y
b1000 )
b1000 K
b1000 S
b1000 n
b10010 X
b10010 !"
b1 Z
b1 }
b1101 [
b1101 |
b10010 U
b10010 c
b10010 a
b1 b
b101 2
b10 R
b101101101100100010011 !
b101101101100100010011 0
b101101101100100010011 `
b101101101100100010011 *"
b1 $
b1 P
1*
#760
0*
#765
b1 _
b1 o
1L
b100 R
b10 $
b10 P
1*
#770
0*
#775
1Q
b0 R
b100 $
b100 P
1*
#780
0*
#785
b0 _
b0 o
0Q
0L
b1 R
b0 $
b0 P
b1001100 &"
b1001100 )"
b10000000000000001001100 &
b10000000000000001001100 6
b10000000000000001001100 l
1*
#790
0*
#795
b10000 Y
b110 )
b110 K
b110 S
b110 n
b10000 X
b10000 !"
b1011 Z
b1011 }
b1111 [
b1111 |
b10000 U
b10000 c
b10000 a
b1011 b
b1100011 ^
b0 2
b1100011 /
b10 R
b101101111000100001100011 !
b101101111000100001100011 0
b101101111000100001100011 `
b101101111000100001100011 *"
b1 $
b1 P
1*
#800
0*
#805
b100 R
b10 $
b10 P
x.
bx %
bx 5
bx T
bx "
bx 3
bx d
bx ~
bx '"
bx e
bx p
bx {
bx ]
bx q
bx #"
1*
#810
0*
#815
1Q
b0 R
b100 $
b100 P
1*
#820
0*
#825
0Q
b1 R
b0 $
b0 P
b1010000 &"
b1010000 )"
b10000000000000001010000 &
b10000000000000001010000 6
b10000000000000001010000 l
1*
#830
0*
#835
b0 Y
b0 X
b0 !"
b0 Z
b0 }
b0 [
b0 |
b0 U
b0 c
b0 a
b0 b
b0 ^
b0 /
b10 R
b0 !
b0 0
b0 `
b0 *"
b1 $
b1 P
1*
#840
0*
#845
b100 R
b10 $
b10 P
bx _
bx o
bx \
bx $"
1*
#850
0*
#855
1Q
b0 R
b100 $
b100 P
1*
#860
0*
#865
0Q
b1 R
b0 $
b0 P
b1010100 &"
b1010100 )"
b10000000000000001010100 &
b10000000000000001010100 6
b10000000000000001010100 l
1*
#870
0*
#875
b10 R
b1 $
b1 P
1*
#880
0*
#885
b100 R
b10 $
b10 P
1*
#890
0*
#895
1Q
b0 R
b100 $
b100 P
1*
#900
0*
#905
0Q
b1 R
b0 $
b0 P
b1011000 &"
b1011000 )"
b10000000000000001011000 &
b10000000000000001011000 6
b10000000000000001011000 l
1*
#910
0*
#915
b10 R
b1 $
b1 P
1*
#920
0*
#925
b100 R
b10 $
b10 P
1*
#930
0*
#935
1Q
b0 R
b100 $
b100 P
1*
#940
0*
#945
0Q
b1 R
b0 $
b0 P
b1011100 &"
b1011100 )"
b10000000000000001011100 &
b10000000000000001011100 6
b10000000000000001011100 l
1*
#950
0*
#955
b10 R
b1 $
b1 P
1*
#960
0*
#965
b100 R
b10 $
b10 P
1*
#970
0*
#975
1Q
b0 R
b100 $
b100 P
1*
#980
0*
#985
0Q
b1 R
b0 $
b0 P
b1100000 &"
b1100000 )"
b10000000000000001100000 &
b10000000000000001100000 6
b10000000000000001100000 l
1*
#990
0*
#995
b0x %
b0x 5
b0x T
b0x "
b0x 3
b0x d
b0x ~
b0x '"
b1111 Y
b0x e
b0x p
b0x {
b100 )
b100 K
b100 S
b100 n
b1001 X
b1001 !"
b1111 Z
b1111 }
b10010 [
b10010 |
b100000001000 U
b100000001000 c
b1001 a
b1111 b
b10011 ^
b10 2
b10011 /
b10 R
b111110010010010010010011 !
b111110010010010010010011 0
b111110010010010010010011 `
b111110010010010010010011 *"
b1 $
b1 P
1*
#1000
0*
#1005
0.
b1 %
b1 5
b1 T
b1 "
b1 3
b1 d
b1 ~
b1 '"
b1 e
b1 p
b1 {
b1111 _
b1111 o
1L
b100 R
b10 $
b10 P
b0 ]
b0 q
b0 #"
1*
#1010
0*
#1015
1Q
b0 R
b100 $
b100 P
1*
#1020
0*
#1025
x.
b0x %
b0x 5
b0x T
b0x "
b0x 3
b0x d
b0x ~
b0x '"
b0x e
b0x p
b0x {
bx _
bx o
0Q
0L
b1 R
b0 $
b0 P
b1100100 &"
b1100100 )"
b10000000000000001100100 &
b10000000000000001100100 6
b10000000000000001100100 l
1*
#1030
0*
#1035
bx %
bx 5
bx T
bx "
bx 3
bx d
bx ~
bx '"
b111010 Y
bx e
bx p
bx {
b101 )
b101 K
b101 S
b101 n
b10011 X
b10011 !"
b11010 Z
b11010 }
b1000 [
b1000 |
b100000110010 U
b100000110010 c
b110011 a
b111010 b
b1 1
b100 2
b10 R
b11101001000100100110010011 !
b11101001000100100110010011 0
b11101001000100100110010011 `
b11101001000100100110010011 *"
b1 $
b1 P
1*
#1040
0*
#1045
1L
b100 R
b10 $
b10 P
0.
b111010 %
b111010 5
b111010 T
b111010 "
b111010 3
b111010 d
b111010 ~
b111010 '"
b111010 e
b111010 p
b111010 {
b111010 _
b111010 o
b0 \
b0 $"
1*
#1050
0*
#1055
1Q
b0 R
b100 $
b100 P
1*
#1060
0*
#1065
1.
b0 %
b0 5
b0 T
b0 "
b0 3
b0 d
b0 ~
b0 '"
b0 e
b0 p
b0 {
b0 _
b0 o
0Q
0L
b1 R
b0 $
b0 P
b1101000 &"
b1101000 )"
b10000000000000001101000 &
b10000000000000001101000 6
b10000000000000001101000 l
1*
#1070
0*
#1075
b1 Y
b1001 )
b1001 K
b1001 S
b1001 n
b10100 X
b10100 !"
b1 Z
b1 }
b10001 [
b10001 |
b10100 U
b10100 c
b10100 a
b1 b
b0 1
b1 2
b10 R
b110001001101000010011 !
b110001001101000010011 0
b110001001101000010011 `
b110001001101000010011 *"
b1 $
b1 P
1*
#1080
0*
#1085
b1 _
b1 o
1L
b100 R
b10 $
b10 P
1*
#1090
0*
#1095
1Q
b0 R
b100 $
b100 P
1*
#1100
0*
#1105
b0 _
b0 o
0Q
0L
b1 R
b0 $
b0 P
b1101100 &"
b1101100 )"
b10000000000000001101100 &
b10000000000000001101100 6
b10000000000000001101100 l
1*
#1110
0*
#1115
b10000000010 Y
b1010 )
b1010 K
b1010 S
b1010 n
b101 X
b101 !"
b10 Z
b10 }
b1111 [
b1111 |
b110000000100 U
b110000000100 c
b10000000101 a
b10000000010 b
b100000 1
b101 2
b10 R
b1000000001001111101001010010011 !
b1000000001001111101001010010011 0
b1000000001001111101001010010011 `
b1000000001001111101001010010011 *"
b1 $
b1 P
1*
#1120
0*
#1125
b10000000010 _
b10000000010 o
1L
b100 R
b10 $
b10 P
x.
bx %
bx 5
bx T
bx "
bx 3
bx d
bx ~
bx '"
bx e
bx p
bx {
bx ]
bx q
bx #"
1*
#1130
0*
#1135
1Q
b0 R
b100 $
b100 P
1*
#1140
0*
#1145
b0 _
b0 o
0Q
0L
b1 R
b0 $
b0 P
b1110000 &"
b1110000 )"
b10000000000000001110000 &
b10000000000000001110000 6
b10000000000000001110000 l
1*
#1150
0*
#1155
b0 Y
b0 X
b0 !"
b0 Z
b0 }
b0 [
b0 |
b0 U
b0 c
b0 a
b0 b
b0 ^
b0 1
b0 2
b0 /
b10 R
b0 !
b0 0
b0 `
b0 *"
b1 $
b1 P
1*
#1160
0*
#1165
b100 R
b10 $
b10 P
bx _
bx o
bx \
bx $"
1*
