testbench.vcd
$date
	Fri Nov 29 21:16:08 2024
$end
$version
	Icarus Verilog
$end
$timescale
	1s
$end
$scope module top_proc_tb $end
$var wire 32 ! instr [31:0] $end
$var wire 32 " dWriteData [31:0] $end
$var wire 32 # dAddress [31:0] $end
$var wire 3 $ current_state [2:0] $end
$var wire 32 % WriteBackData [31:0] $end
$var wire 32 & PC [31:0] $end
$var wire 1 ' MemWrite $end
$var wire 1 ( MemRead $end
$var wire 4 ) ALUCtrl [3:0] $end
$var reg 1 * clk $end
$var reg 32 + dReadData [31:0] $end
$var reg 1 , rst $end
$scope module uut $end
$var wire 1 * clk $end
$var wire 32 - dReadData [31:0] $end
$var wire 1 , rst $end
$var wire 7 . opcode [6:0] $end
$var wire 32 / instr [31:0] $end
$var wire 7 0 funct7 [6:0] $end
$var wire 3 1 funct3 [2:0] $end
$var wire 32 2 dWriteData [31:0] $end
$var wire 32 3 dAddress [31:0] $end
$var wire 32 4 WriteBackData [31:0] $end
$var wire 32 5 PC [31:0] $end
$var parameter 4 6 ALUOP_ADD $end
$var parameter 4 7 ALUOP_AND $end
$var parameter 4 8 ALUOP_ASR $end
$var parameter 4 9 ALUOP_LSL $end
$var parameter 4 : ALUOP_LSR $end
$var parameter 4 ; ALUOP_OR $end
$var parameter 4 < ALUOP_SLT $end
$var parameter 4 = ALUOP_SUB $end
$var parameter 4 > ALUOP_XOR $end
$var parameter 3 ? EX $end
$var parameter 3 @ ID $end
$var parameter 3 A IF $end
$var parameter 32 B INITIAL_PC $end
$var parameter 3 C MEM $end
$var parameter 7 D OPCODE_B_TYPE $end
$var parameter 7 E OPCODE_I_TYPE $end
$var parameter 7 F OPCODE_LW $end
$var parameter 7 G OPCODE_R_TYPE $end
$var parameter 7 H OPCODE_S_TYPE $end
$var parameter 3 I WB $end
$var reg 4 J ALUCtrl [3:0] $end
$var reg 1 K ALUSrc $end
$var reg 1 ( MemRead $end
$var reg 1 ' MemWrite $end
$var reg 1 L MemtoReg $end
$var reg 1 M PCSrc $end
$var reg 1 N RegWrite $end
$var reg 3 O current_state [2:0] $end
$var reg 1 P loadPC $end
$var reg 3 Q next_state [2:0] $end
$var reg 1 R zero $end
$scope module DATAPATH $end
$var wire 4 S ALUCtrl [3:0] $end
$var wire 1 K ALUSrc $end
$var wire 1 L MemtoReg $end
$var wire 1 M PCSrc $end
$var wire 1 N RegWrite $end
$var wire 32 T WriteBackData [31:0] $end
$var wire 32 U branch_offset [31:0] $end
$var wire 1 * clk $end
$var wire 32 V dReadData [31:0] $end
$var wire 1 P loadPC $end
$var wire 1 W rst $end
$var wire 1 X zero $end
$var wire 5 Y writeReg [4:0] $end
$var wire 32 Z selected_imm [31:0] $end
$var wire 5 [ readReg2 [4:0] $end
$var wire 5 \ readReg1 [4:0] $end
$var wire 32 ] readData2 [31:0] $end
$var wire 32 ^ readData1 [31:0] $end
$var wire 7 _ opcode [6:0] $end
$var wire 32 ` op2 [31:0] $end
$var wire 32 a op1 [31:0] $end
$var wire 32 b instr [31:0] $end
$var wire 32 c imm_S [31:0] $end
$var wire 32 d imm_I [31:0] $end
$var wire 32 e imm_B [31:0] $end
$var wire 32 f dWriteData [31:0] $end
$var wire 32 g dAddress [31:0] $end
$var parameter 32 h DATAWIDTH $end
$var parameter 32 i INITIAL_PC $end
$var parameter 7 j OPCODE_B_TYPE $end
$var parameter 7 k OPCODE_I_TYPE $end
$var parameter 7 l OPCODE_LW $end
$var parameter 7 m OPCODE_S_TYPE $end
$var reg 32 n PC [31:0] $end
$scope module ALU $end
$var wire 4 o alu_op [3:0] $end
$var wire 32 p op1 [31:0] $end
$var wire 32 q op2 [31:0] $end
$var wire 32 r result [31:0] $end
$var wire 1 X zero $end
$var parameter 4 s ALUOP_ADD $end
$var parameter 4 t ALUOP_AND $end
$var parameter 4 u ALUOP_ASR $end
$var parameter 4 v ALUOP_LSL $end
$var parameter 4 w ALUOP_LSR $end
$var parameter 4 x ALUOP_OR $end
$var parameter 4 y ALUOP_SLT $end
$var parameter 4 z ALUOP_SUB $end
$var parameter 4 { ALUOP_XOR $end
$var reg 32 | res [31:0] $end
$upscope $end
$scope module rf $end
$var wire 1 * clk $end
$var wire 5 } readReg1 [4:0] $end
$var wire 5 ~ readReg2 [4:0] $end
$var wire 1 N write $end
$var wire 32 !" writeData [31:0] $end
$var wire 5 "" writeReg [4:0] $end
$var parameter 32 #" DATAWIDTH $end
$var reg 32 $" readData1 [31:0] $end
$var reg 32 %" readData2 [31:0] $end
$var integer 32 &" i [31:0] $end
$upscope $end
$upscope $end
$scope module RAM $end
$var wire 9 '" addr [8:0] $end
$var wire 1 * clk $end
$var wire 32 (" din [31:0] $end
$var wire 1 ' we $end
$var reg 32 )" dout [31:0] $end
$upscope $end
$scope module ROM $end
$var wire 9 *" addr [8:0] $end
$var wire 1 * clk $end
$var reg 32 +" dout [31:0] $end
$upscope $end
$upscope $end
$upscope $end
$enddefinitions $end
$comment Show the parameter values. $end
$dumpall
b100000 #"
b101 {
b110 z
b100 y
b1 x
b1000 w
b1001 v
b1010 u
b0 t
b10 s
b100011 m
b11 l
b10011 k
b1100011 j
b10000000000000000000000 i
b100000 h
b100 I
b100011 H
b110011 G
b11 F
b10011 E
b1100011 D
b11 C
b10000000000000000000000 B
b0 A
b1 @
b10 ?
b101 >
b110 =
b100 <
b1 ;
b1000 :
b1001 9
b1010 8
b0 7
b10 6
$end
#10
$dumpvars
b11100000000000010010011 +"
b0 *"
bx )"
b0 ("
b0 '"
b100000 &"
b0 %"
b0 $"
b1 ""
b0 !"
b111 ~
b0 }
b0 |
b0 r
b0 q
b0 p
bx o
b10000000000000000000000 n
b0 g
b0 f
b100000000000 e
b111 d
b1 c
b11100000000000010010011 b
b0 a
b0 `
b10011 _
b0 ^
b0 ]
b0 \
b111 [
b111 Z
b1 Y
1X
zW
bx V
b100000000000 U
b0 T
bx S
xR
b1 Q
0P
b0 O
0N
0M
0L
0K
bx J
b10000000000000000000000 5
b0 4
b0 3
b0 2
b0 1
b0 0
b11100000000000010010011 /
b10011 .
bx -
0,
b0 +
0*
bx )
0(
0'
b10000000000000000000000 &
b0 %
b0 $
b0 #
b0 "
b11100000000000010010011 !
$end
#15
b10 )
b10 J
b10 S
b10 o
b10 Q
b1 $
b1 O
1*
#20
0*
#25
0X
b111 '"
b111 #
b111 3
b111 g
b111 r
b111 |
b111 `
b111 q
1K
b100 Q
b10 $
b10 O
1*
#30
0*
#35
1P
b0 Q
b100 $
b100 O
1*
#40
0*
#45
1X
b0 '"
b0 #
b0 3
b0 g
b0 r
b0 |
b0 `
b0 q
0P
0K
b1 Q
b0 $
b0 O
b100 *"
b10000000000000000000100 &
b10000000000000000000100 5
b10000000000000000000100 n
1*
#50
0*
#55
b10101 Z
b10 Y
b10 ""
b10101 [
b10101 ~
b10 U
b10 e
b10 c
b10101 d
b10 Q
b1010100000000000100010011 !
b1010100000000000100010011 /
b1010100000000000100010011 b
b1010100000000000100010011 +"
b1 $
b1 O
1*
#60
0*
#65
0X
b10101 '"
b10101 #
b10101 3
b10101 g
b10101 r
b10101 |
b10101 `
b10101 q
1K
b100 Q
b10 $
b10 O
1*
#70
0*
#75
1P
b0 Q
b100 $
b100 O
1*
#80
0*
#85
1X
b0 '"
b0 #
b0 3
b0 g
b0 r
b0 |
b0 `
b0 q
0P
0K
b1 Q
b0 $
b0 O
b1000 *"
b10000000000000000001000 &
b10000000000000000001000 5
b10000000000000000001000 n
1*
#90
0*
#95
b10 Z
b11 Y
b11 ""
b10 [
b10 ~
b1 \
b1 }
b100000000010 U
b100000000010 e
b11 c
b10 d
b110011 _
b110011 .
b10 Q
b1000001000000110110011 !
b1000001000000110110011 /
b1000001000000110110011 b
b1000001000000110110011 +"
b1 $
b1 O
1*
#100
0*
#105
b100 Q
b10 $
b10 O
1*
#110
0*
#115
1P
b0 Q
b100 $
b100 O
1*
#120
0*
#125
0P
b1 Q
b0 $
b0 O
b1100 *"
b10000000000000000001100 &
b10000000000000000001100 5
b10000000000000000001100 n
1*
#130
0*
#135
b11111111111111111111111111110111 Z
b100 Y
b100 ""
b10111 [
b10111 ~
b0 \
b0 }
b11111111111111111111011111100100 U
b11111111111111111111011111100100 e
b11111111111111111111111111100100 c
b11111111111111111111111111110111 d
b10011 _
b1111111 0
b10011 .
b10 Q
b11111111011100000000001000010011 !
b11111111011100000000001000010011 /
b11111111011100000000001000010011 b
b11111111011100000000001000010011 +"
b1 $
b1 O
1*
#140
0*
#145
0X
b111110111 '"
b11111111111111111111111111110111 #
b11111111111111111111111111110111 3
b11111111111111111111111111110111 g
b11111111111111111111111111110111 r
b11111111111111111111111111110111 |
b11111111111111111111111111110111 `
b11111111111111111111111111110111 q
1K
b100 Q
b10 $
b10 O
1*
#150
0*
#155
1P
b0 Q
b100 $
b100 O
1*
#160
0*
#165
1X
b0 '"
b0 #
b0 3
b0 g
b0 r
b0 |
b0 `
b0 q
0P
0K
b1 Q
b0 $
b0 O
b10000 *"
b10000000000000000010000 &
b10000000000000000010000 5
b10000000000000000010000 n
1*
#170
0*
#175
b11111111111111111111111111101111 Z
b101 Y
b101 ""
b1111 [
b1111 ~
b10 \
b10 }
b11111111111111111111111111100100 U
b11111111111111111111111111100100 e
b11111111111111111111111111100101 c
b11111111111111111111111111101111 d
b10 Q
b11111110111100010000001010010011 !
b11111110111100010000001010010011 /
b11111110111100010000001010010011 b
b11111110111100010000001010010011 +"
b1 $
b1 O
1*
#180
0*
#185
0X
b111101111 '"
b11111111111111111111111111101111 #
b11111111111111111111111111101111 3
b11111111111111111111111111101111 g
b11111111111111111111111111101111 r
b11111111111111111111111111101111 |
b11111111111111111111111111101111 `
b11111111111111111111111111101111 q
1K
b100 Q
b10 $
b10 O
1*
#190
0*
#195
1P
b0 Q
b100 $
b100 O
1*
#200
0*
#205
1X
b0 '"
b0 #
b0 3
b0 g
b0 r
b0 |
b0 `
b0 q
0P
0K
b1 Q
b0 $
b0 O
b10100 *"
b10000000000000000010100 &
b10000000000000000010100 5
b10000000000000000010100 n
1*
#210
0*
#215
b100 Z
b110 Y
b110 ""
b100 [
b100 ~
b101 \
b101 }
b110 U
b110 e
b110 c
b100 d
b110011 _
b0 0
b110011 .
b10 Q
b10000101000001100110011 !
b10000101000001100110011 /
b10000101000001100110011 b
b10000101000001100110011 +"
b1 $
b1 O
1*
#220
0*
#225
b100 Q
b10 $
b10 O
1*
#230
0*
#235
1P
b0 Q
b100 $
b100 O
1*
#240
0*
#245
0P
b1 Q
b0 $
b0 O
b11000 *"
b10000000000000000011000 &
b10000000000000000011000 5
b10000000000000000011000 n
1*
#250
0*
#255
b10000000010 Z
b110 )
b110 J
b110 S
b110 o
b111 Y
b111 ""
b10 [
b10 ~
b11 \
b11 }
b110000000110 U
b110000000110 e
b10000000111 c
b10000000010 d
b100000 0
b10 Q
b1000000001000011000001110110011 !
b1000000001000011000001110110011 /
b1000000001000011000001110110011 b
b1000000001000011000001110110011 +"
b1 $
b1 O
1*
#260
0*
#265
b100 Q
b10 $
b10 O
1*
#270
0*
#275
1P
b0 Q
b100 $
b100 O
1*
#280
0*
#285
0P
b1 Q
b0 $
b0 O
b11100 *"
b10000000000000000011100 &
b10000000000000000011100 5
b10000000000000000011100 n
1*
#290
0*
#295
b101 Z
b1001 )
b1001 J
b1001 S
b1001 o
b1000 Y
b1000 ""
b101 [
b101 ~
b111 \
b111 }
b1000 U
b1000 e
b1000 c
b101 d
b0 0
b1 1
b10 Q
b10100111001010000110011 !
b10100111001010000110011 /
b10100111001010000110011 b
b10100111001010000110011 +"
b1 $
b1 O
1*
#300
0*
#305
b100 Q
b10 $
b10 O
1*
#310
0*
#315
1P
b0 Q
b100 $
b100 O
1*
#320
0*
#325
0P
b1 Q
b0 $
b0 O
b100000 *"
b10000000000000000100000 &
b10000000000000000100000 5
b10000000000000000100000 n
1*
#330
0*
#335
b1000 Z
b100 )
b100 J
b100 S
b100 o
b1001 Y
b1001 ""
b1000 [
b1000 ~
b100 \
b100 }
b100000001000 U
b100000001000 e
b1001 c
b1000 d
b10 1
b10 Q
b100000100010010010110011 !
b100000100010010010110011 /
b100000100010010010110011 b
b100000100010010010110011 +"
b1 $
b1 O
1*
#340
0*
#345
b100 Q
b10 $
b10 O
1*
#350
0*
#355
1P
b0 Q
b100 $
b100 O
1*
#360
0*
#365
0P
b1 Q
b0 $
b0 O
b100100 *"
b10000000000000000100100 &
b10000000000000000100100 5
b10000000000000000100100 n
1*
#370
0*
#375
b10 Z
b101 )
b101 J
b101 S
b101 o
b1010 Y
b1010 ""
b10 [
b10 ~
b1000 \
b1000 }
b1010 U
b1010 e
b1010 c
b10 d
b100 1
b10 Q
b1001000100010100110011 !
b1001000100010100110011 /
b1001000100010100110011 b
b1001000100010100110011 +"
b1 $
b1 O
1*
#380
0*
#385
b100 Q
b10 $
b10 O
1*
#390
0*
#395
1P
b0 Q
b100 $
b100 O
1*
#400
0*
#405
0P
b1 Q
b0 $
b0 O
b101000 *"
b10000000000000000101000 &
b10000000000000000101000 5
b10000000000000000101000 n
1*
#410
0*
#415
b1000 Z
b0 )
b0 J
b0 S
b0 o
b1011 Y
b1011 ""
b1000 [
b1000 ~
b1010 \
b1010 }
b100000001010 U
b100000001010 e
b1011 c
b1000 d
b111 1
b10 Q
b100001010111010110110011 !
b100001010111010110110011 /
b100001010111010110110011 b
b100001010111010110110011 +"
b1 $
b1 O
1*
#420
0*
#425
b100 Q
b10 $
b10 O
1*
#430
0*
#435
1P
b0 Q
b100 $
b100 O
1*
#440
0*
#445
0P
b1 Q
b0 $
b0 O
b101100 *"
b10000000000000000101100 &
b10000000000000000101100 5
b10000000000000000101100 n
1*
#450
0*
#455
b1001 Z
b1000 )
b1000 J
b1000 S
b1000 o
b1100 Y
b1100 ""
b1001 [
b1001 ~
b1011 \
b1011 }
b1100 U
b1100 e
b1100 c
b1001 d
b101 1
b10 Q
b100101011101011000110011 !
b100101011101011000110011 /
b100101011101011000110011 b
b100101011101011000110011 +"
b1 $
b1 O
1*
#460
0*
#465
b100 Q
b10 $
b10 O
1*
#470
0*
#475
1P
b0 Q
b100 $
b100 O
1*
#480
0*
#485
0P
b1 Q
b0 $
b0 O
b110000 *"
b10000000000000000110000 &
b10000000000000000110000 5
b10000000000000000110000 n
1*
#490
0*
#495
b11 Z
b1 )
b1 J
b1 S
b1 o
b1101 Y
b1101 ""
b11 [
b11 ~
b1100 \
b1100 }
b100000001100 U
b100000001100 e
b1101 c
b11 d
b110 1
b10 Q
b1101100110011010110011 !
b1101100110011010110011 /
b1101100110011010110011 b
b1101100110011010110011 +"
b1 $
b1 O
1*
#500
0*
#505
b100 Q
b10 $
b10 O
1*
#510
0*
#515
1P
b0 Q
b100 $
b100 O
1*
#520
0*
#525
0P
b1 Q
b0 $
b0 O
b110100 *"
b10000000000000000110100 &
b10000000000000000110100 5
b10000000000000000110100 n
1*
#530
0*
#535
b10000001001 Z
b1010 )
b1010 J
b1010 S
b1010 o
b1110 Y
b1110 ""
b1001 [
b1001 ~
b100 \
b100 }
b10000001110 U
b10000001110 e
b10000001110 c
b10000001001 d
b100000 0
b101 1
b10 Q
b1000000100100100101011100110011 !
b1000000100100100101011100110011 /
b1000000100100100101011100110011 b
b1000000100100100101011100110011 +"
b1 $
b1 O
1*
#540
0*
#545
b100 Q
b10 $
b10 O
1*
#550
0*
#555
1P
b0 Q
b100 $
b100 O
1*
#560
0*
#565
0P
b1 Q
b0 $
b0 O
b111000 *"
b10000000000000000111000 &
b10000000000000000111000 5
b10000000000000000111000 n
1*
#570
0*
#575
0X
b101 '"
b101 #
b101 3
b101 g
b101 r
b101 |
b0 Z
b101 a
b101 p
b10 )
b10 J
b10 S
b10 o
b0 Y
b0 ""
b1011 [
b1011 ~
b101 \
b101 }
b0 U
b0 e
b0 c
b1011 d
b100011 _
b0 0
b10 1
b100011 .
b10 Q
b101100101010000000100011 !
b101100101010000000100011 /
b101100101010000000100011 b
b101100101010000000100011 +"
b1 $
b1 O
1*
#580
0*
#585
1K
b11 Q
b10 $
b10 O
1*
#590
0*
#595
1'
b100 Q
b11 $
b11 O
1*
#600
0*
#605
1P
b0 Q
b100 $
b100 O
1*
#610
0*
#615
0P
0K
0'
b1 Q
b0 $
b0 O
b111100 *"
b10000000000000000111100 &
b10000000000000000111100 5
b10000000000000000111100 n
1*
#620
0*
#625
b1111 Y
b1111 ""
b0 [
b0 ~
b100000001110 U
b100000001110 e
b1111 c
b0 d
b11 _
b11 .
b10 Q
b101010011110000011 !
b101010011110000011 /
b101010011110000011 b
b101010011110000011 +"
b1 $
b1 O
b0 -
b0 V
b0 )"
1*
#630
0*
#635
b101 %
b101 4
b101 T
b101 "
b101 2
b101 f
b101 !"
b101 ("
1L
1K
b11 Q
b10 $
b10 O
1*
#640
0*
#645
1(
b100 Q
b11 $
b11 O
1*
#650
0*
#655
1N
1P
b0 Q
b100 $
b100 O
1*
#660
0*
#665
b0 %
b0 4
b0 T
b0 "
b0 2
b0 f
b0 !"
b0 ("
0P
0L
0K
0N
0(
b1 Q
b0 $
b0 O
b1000000 *"
b10000000000000001000000 &
b10000000000000001000000 5
b10000000000000001000000 n
1*
#670
0*
#675
1X
b0 '"
b0 #
b0 3
b0 g
b0 r
b0 |
b0 a
b0 p
b11111111111111111111111111010011 Z
b0 )
b0 J
b0 S
b0 o
b10000 Y
b10000 ""
b10011 [
b10011 ~
b1000 \
b1000 }
b11111111111111111111011111010000 U
b11111111111111111111011111010000 e
b11111111111111111111111111010000 c
b11111111111111111111111111010011 d
b10011 _
b1111110 0
b111 1
b10011 .
b10 Q
b11111101001101000111100000010011 !
b11111101001101000111100000010011 /
b11111101001101000111100000010011 b
b11111101001101000111100000010011 +"
b1 $
b1 O
1*
#680
0*
#685
b11111111111111111111111111010011 `
b11111111111111111111111111010011 q
1K
b100 Q
b10 $
b10 O
bx -
bx V
bx )"
1*
#690
0*
#695
1P
b0 Q
b100 $
b100 O
1*
#700
0*
#705
b0 `
b0 q
0P
0K
b1 Q
b0 $
b0 O
b1000100 *"
b10000000000000001000100 &
b10000000000000001000100 5
b10000000000000001000100 n
1*
#710
0*
#715
b10110 Z
b1 )
b1 J
b1 S
b1 o
b10001 Y
b10001 ""
b10110 [
b10110 ~
b10000 \
b10000 }
b100000010000 U
b100000010000 e
b10001 c
b10110 d
b0 0
b110 1
b10 Q
b1011010000110100010010011 !
b1011010000110100010010011 /
b1011010000110100010010011 b
b1011010000110100010010011 +"
b1 $
b1 O
1*
#720
0*
#725
0X
b10110 '"
b10110 #
b10110 3
b10110 g
b10110 r
b10110 |
b10110 `
b10110 q
1K
b100 Q
b10 $
b10 O
1*
#730
0*
#735
1P
b0 Q
b100 $
b100 O
1*
#740
0*
#745
1X
b0 '"
b0 #
b0 3
b0 g
b0 r
b0 |
b0 `
b0 q
0P
0K
b1 Q
b0 $
b0 O
b1001000 *"
b10000000000000001001000 &
b10000000000000001001000 5
b10000000000000001001000 n
1*
#750
0*
#755
b1 Z
b1000 )
b1000 J
b1000 S
b1000 o
b10010 Y
b10010 ""
b1 [
b1 ~
b1101 \
b1101 }
b10010 U
b10010 e
b10010 c
b1 d
b101 1
b10 Q
b101101101100100010011 !
b101101101100100010011 /
b101101101100100010011 b
b101101101100100010011 +"
b1 $
b1 O
1*
#760
0*
#765
b1 `
b1 q
1K
b100 Q
b10 $
b10 O
1*
#770
0*
#775
1P
b0 Q
b100 $
b100 O
1*
#780
0*
#785
b0 `
b0 q
0P
0K
b1 Q
b0 $
b0 O
b1001100 *"
b10000000000000001001100 &
b10000000000000001001100 5
b10000000000000001001100 n
1*
#790
0*
#795
0X
b101 '"
b101 %
b101 4
b101 T
b101 "
b101 2
b101 f
b101 !"
b101 ("
b101 #
b101 3
b101 g
b101 r
b101 |
b101 a
b101 p
b101 ^
b101 $"
b10000 Z
b110 )
b110 J
b110 S
b110 o
b10000 Y
b10000 ""
b1011 [
b1011 ~
b1111 \
b1111 }
b10000 U
b10000 e
b10000 c
b1011 d
b1100011 _
b0 1
b1100011 .
b10 Q
b101101111000100001100011 !
b101101111000100001100011 /
b101101111000100001100011 b
b101101111000100001100011 +"
b1 $
b1 O
1*
#800
0*
#805
b100 Q
b10 $
b10 O
b0 -
b0 V
b0 )"
1*
#810
0*
#815
1P
b0 Q
b100 $
b100 O
1*
#820
0*
#825
0P
b1 Q
b0 $
b0 O
b1010000 *"
b10000000000000001010000 &
b10000000000000001010000 5
b10000000000000001010000 n
1*
#830
0*
#835
1X
b0 '"
b0 %
b0 4
b0 T
b0 "
b0 2
b0 f
b0 !"
b0 ("
b0 #
b0 3
b0 g
b0 r
b0 |
b0 a
b0 p
b0 ^
b0 $"
b0 Z
b0 Y
b0 ""
b0 [
b0 ~
b0 \
b0 }
b0 U
b0 e
b0 c
b0 d
b0 _
b0 .
b10 Q
b0 !
b0 /
b0 b
b0 +"
b1 $
b1 O
1*
#840
0*
#845
b100 Q
b10 $
b10 O
bx -
bx V
bx )"
1*
#850
0*
#855
1P
b0 Q
b100 $
b100 O
1*
#860
0*
#865
0P
b1 Q
b0 $
b0 O
b1010100 *"
b10000000000000001010100 &
b10000000000000001010100 5
b10000000000000001010100 n
1*
#870
0*
#875
b10 Q
b1 $
b1 O
1*
#880
0*
#885
b100 Q
b10 $
b10 O
1*
#890
0*
#895
1P
b0 Q
b100 $
b100 O
1*
#900
0*
#905
0P
b1 Q
b0 $
b0 O
b1011000 *"
b10000000000000001011000 &
b10000000000000001011000 5
b10000000000000001011000 n
1*
#910
0*
#915
b10 Q
b1 $
b1 O
1*
#920
0*
#925
b100 Q
b10 $
b10 O
1*
#930
0*
#935
1P
b0 Q
b100 $
b100 O
1*
#940
0*
#945
0P
b1 Q
b0 $
b0 O
b1011100 *"
b10000000000000001011100 &
b10000000000000001011100 5
b10000000000000001011100 n
1*
#950
0*
#955
b10 Q
b1 $
b1 O
1*
#960
0*
#965
b100 Q
b10 $
b10 O
1*
#970
0*
#975
1P
b0 Q
b100 $
b100 O
1*
#980
0*
#985
0P
b1 Q
b0 $
b0 O
b1100000 *"
b10000000000000001100000 &
b10000000000000001100000 5
b10000000000000001100000 n
1*
#990
0*
#995
0X
b1 '"
b1 #
b1 3
b1 g
b1 r
b1 |
b101 `
b101 q
b101 ]
b101 %"
b1111 Z
b100 )
b100 J
b100 S
b100 o
b1001 Y
b1001 ""
b1111 [
b1111 ~
b10010 \
b10010 }
b100000001000 U
b100000001000 e
b1001 c
b1111 d
b10011 _
b10 1
b10011 .
b10 Q
b111110010010010010010011 !
b111110010010010010010011 /
b111110010010010010010011 b
b111110010010010010010011 +"
b1 $
b1 O
1*
#1000
0*
#1005
b1111 `
b1111 q
1K
b100 Q
b10 $
b10 O
1*
#1010
0*
#1015
1P
b0 Q
b100 $
b100 O
1*
#1020
0*
#1025
b101 `
b101 q
0P
0K
b1 Q
b0 $
b0 O
b1100100 *"
b10000000000000001100100 &
b10000000000000001100100 5
b10000000000000001100100 n
1*
#1030
0*
#1035
1X
b0 `
b0 q
b0 ]
b0 %"
b0 '"
b111010 Z
b0 #
b0 3
b0 g
b0 r
b0 |
b101 )
b101 J
b101 S
b101 o
b10011 Y
b10011 ""
b11010 [
b11010 ~
b1000 \
b1000 }
b100000110010 U
b100000110010 e
b110011 c
b111010 d
b1 0
b100 1
b10 Q
b11101001000100100110010011 !
b11101001000100100110010011 /
b11101001000100100110010011 b
b11101001000100100110010011 +"
b1 $
b1 O
1*
#1040
0*
#1045
0X
b111010 '"
b111010 #
b111010 3
b111010 g
b111010 r
b111010 |
b111010 `
b111010 q
1K
b100 Q
b10 $
b10 O
1*
#1050
0*
#1055
1P
b0 Q
b100 $
b100 O
1*
#1060
0*
#1065
1X
b0 '"
b0 #
b0 3
b0 g
b0 r
b0 |
b0 `
b0 q
0P
0K
b1 Q
b0 $
b0 O
b1101000 *"
b10000000000000001101000 &
b10000000000000001101000 5
b10000000000000001101000 n
1*
#1070
0*
#1075
b1 Z
b1001 )
b1001 J
b1001 S
b1001 o
b10100 Y
b10100 ""
b1 [
b1 ~
b10001 \
b10001 }
b10100 U
b10100 e
b10100 c
b1 d
b0 0
b1 1
b10 Q
b110001001101000010011 !
b110001001101000010011 /
b110001001101000010011 b
b110001001101000010011 +"
b1 $
b1 O
1*
#1080
0*
#1085
b1 `
b1 q
1K
b100 Q
b10 $
b10 O
1*
#1090
0*
#1095
1P
b0 Q
b100 $
b100 O
1*
#1100
0*
#1105
b0 `
b0 q
0P
0K
b1 Q
b0 $
b0 O
b1101100 *"
b10000000000000001101100 &
b10000000000000001101100 5
b10000000000000001101100 n
1*
#1110
0*
#1115
0X
b101 '"
b101 %
b101 4
b101 T
b101 "
b101 2
b101 f
b101 !"
b101 ("
b101 #
b101 3
b101 g
b101 r
b101 |
b101 a
b101 p
b101 ^
b101 $"
b10000000010 Z
b1010 )
b1010 J
b1010 S
b1010 o
b101 Y
b101 ""
b10 [
b10 ~
b1111 \
b1111 }
b110000000100 U
b110000000100 e
b10000000101 c
b10000000010 d
b100000 0
b101 1
b10 Q
b1000000001001111101001010010011 !
b1000000001001111101001010010011 /
b1000000001001111101001010010011 b
b1000000001001111101001010010011 +"
b1 $
b1 O
1*
#1120
0*
#1125
b1 '"
b1 #
b1 3
b1 g
b1 r
b1 |
b10000000010 `
b10000000010 q
1K
b100 Q
b10 $
b10 O
b0 -
b0 V
b0 )"
1*
#1130
0*
#1135
1P
b0 Q
b100 $
b100 O
bx -
bx V
bx )"
1*
#1140
0*
#1145
b101 '"
b101 #
b101 3
b101 g
b101 r
b101 |
b0 `
b0 q
0P
0K
b1 Q
b0 $
b0 O
b1110000 *"
b10000000000000001110000 &
b10000000000000001110000 5
b10000000000000001110000 n
1*
#1150
0*
#1155
1X
b0 '"
b0 %
b0 4
b0 T
b0 "
b0 2
b0 f
b0 !"
b0 ("
b0 #
b0 3
b0 g
b0 r
b0 |
b0 a
b0 p
b0 ^
b0 $"
b0 Z
b0 Y
b0 ""
b0 [
b0 ~
b0 \
b0 }
b0 U
b0 e
b0 c
b0 d
b0 _
b0 0
b0 1
b0 .
b10 Q
b0 !
b0 /
b0 b
b0 +"
b1 $
b1 O
b0 -
b0 V
b0 )"
1*
#1160
0*
#1165
b100 Q
b10 $
b10 O
bx -
bx V
bx )"
1*
#1170
0*
                                                                                                                                                                                                                                                                                                                                                                                                                                                                                                                                                                                                                                                                                                                                                                                                                                                                                                                                                                                                                                                                                                                                                                                                                                                                                                                                                                                                                                                                                                                                                                                                                                                                                                                                                                                                                                                                                                                                                                                                                                                                                                                                                                                                                                                                                                                                                                                                                                                                                                                                                                                                                                                                                                                                                                                                                                                                                                                                                                                                                                                                                                                                                                                                                                                                                                                                                                                                                                                                                                                                                                                                                                                                                                                                                                                                                                                                                                                                                                                                                                                                                                                                                                                                                                                                                                                                                                                                                                                                                                                                                                                                                                                                                                                                                                                                                                                                                                                                                                                                                                                                                                                                                                                                                                                                                                                                                                                                                                                                                                                                                                                                                                                                                                                                                                                                                                                                                                                                                                                                                                                                                                                                                                                                                                                                                                                                                                                                                                                                                                                                                                                                                                                                                                                                                                                                                                                                                                                                                                                                                                                                                                                                                                                                                                                                                                                                                                                                                                                                                                                                                                                                                                                                                                                                                                                                                                                                                                                                                                                                                                                                                                                                                                                                                                                                                                                                                                                                                                                                                                                                                                                                                                                                                                                                                                                                                                                                                                                                                                                                                                                                                                                                                                                                                                                                                                                                                                                                                                                                                                                                                                                                                                                                                                                                                                                                                                                                                                                                                                                                                                                                                                                                                                                                                                                                                                                                                                                                                                                                                                                                                                                                                                                                                                                                                                                                                                                                                                                                                                                                                                                                                                                                                                                                                                                                                                                                                                                                                                                                                                                                                                                                                                                                                                                                                                                                                                                                                                                                                                                                                                                                                                                                                                                                                                                                                                                                                                                                                                                                                                                                                                                                                                                                                                                                                                                                                                                                                                                                                                                                                                                                                                                                                                                                                                                                                                                                                                                                                                                                                                                                                                                                                                                                                                                                                                                                                                                                                                                                                                                                                                                                                                                                                                                                                                                                                                                                                                                                                                                                                                                                                                                                                                                                                                                                                                                                                                                                                                                                                                                                                                                                                                                                                                                                                                                                                                                                                                                                                                                                                                                                                                                                                                                                                                                                                                                                                                                                                                                                                                                                                                                                                                                                                                                                                                                                                                                                                                                                                                                                                                                                                                                                                                                                                                                                                                                                                                                                                                                                                                                                                                                                                                                                                                                                                                                                                                                                                                                                                                                                                                                                                                                                                                                                                                      b101 %
b101 4
b101 T
b101 "
b101 2
b00000 #
b11111111111111111010101100000000 3
b11111111111111111010101100000000 g
b11111111111111111010101100000000 r
b11111111111111111010101100000000 |
b111 `
b111 q
0P
0L
0K
0N
b1 Q
b0 $
b0 O
b1101100 *"
b10000000000000001101100 &
b10000000000000001101100 5
b10000000000000001101100 n
1*
#1120
0*
#1125
b101 %
b101 4
b101 T
b101 "
b101 2
b101 f
b101 !"
b101 ("
b101 a
b101 p
b10101 ]
b10101 %"
b101 ^
b101 $"
b1 '"
b10000000010 Z
b1 #
b1 3
b1 g
b1 r
b1 |
b1010 )
b1010 J
b1010 S
b1010 o
b10000000010 `
b10000000010 q
b101 Y
b101 ""
b10 [
b10 ~
b1111 \
b1111 }
b110000000100 U
b110000000100 e
b10000000101 c
b10000000010 d
b100000 0
b101 1
1N
1K
b10 Q
b1000000001001111101001010010011 !
b1000000001001111101001010010011 /
b1000000001001111101001010010011 b
b1000000001001111101001010010011 +"
b1 $
b1 O
1*
#1130
0*
#1135
b1 %
b1 4
b1 T
b1 "
b1 2
b1 f
b1 !"
b1 ("
1L
b100 Q
b10 $
b10 O
1*
#1140
0*
#1145
1P
b0 Q
b100 $
b100 O
1*
#1150
0*
