testbench.vcd
$date
	Tue Dec 03 12:45:08 2024
$end
$version
	Icarus Verilog
$end
$timescale
	1s
$end
$scope module top_proc_tb $end
$var wire 32 ! instr [31:0] $end
$var wire 32 " dWriteData [31:0] $end
$var wire 32 # dAddress [31:0] $end
$var wire 3 $ current_state [2:0] $end
$var wire 32 % WriteBackData [31:0] $end
$var wire 32 & PC [31:0] $end
$var wire 1 ' MemWrite $end
$var wire 1 ( MemRead $end
$var wire 4 ) ALUCtrl [3:0] $end
$var reg 1 * clk $end
$var reg 32 + dReadData [31:0] $end
$var reg 1 , rst $end
$scope module uut $end
$var wire 1 * clk $end
$var wire 32 - dReadData [31:0] $end
$var wire 1 , rst $end
$var wire 1 . zero $end
$var wire 7 / opcode [6:0] $end
$var wire 32 0 instr [31:0] $end
$var wire 7 1 funct7 [6:0] $end
$var wire 3 2 funct3 [2:0] $end
$var wire 32 3 dWriteData [31:0] $end
$var wire 32 4 dAddress [31:0] $end
$var wire 32 5 WriteBackData [31:0] $end
$var wire 32 6 PC [31:0] $end
$var parameter 4 7 ALUOP_ADD $end
$var parameter 4 8 ALUOP_AND $end
$var parameter 4 9 ALUOP_ASR $end
$var parameter 4 : ALUOP_LSL $end
$var parameter 4 ; ALUOP_LSR $end
$var parameter 4 < ALUOP_OR $end
$var parameter 4 = ALUOP_SLT $end
$var parameter 4 > ALUOP_SUB $end
$var parameter 4 ? ALUOP_XOR $end
$var parameter 3 @ EX $end
$var parameter 3 A ID $end
$var parameter 3 B IF $end
$var parameter 32 C INITIAL_PC $end
$var parameter 3 D MEM $end
$var parameter 7 E OPCODE_B_TYPE $end
$var parameter 7 F OPCODE_I_TYPE $end
$var parameter 7 G OPCODE_LW $end
$var parameter 7 H OPCODE_R_TYPE $end
$var parameter 7 I OPCODE_S_TYPE $end
$var parameter 3 J WB $end
$var reg 4 K ALUCtrl [3:0] $end
$var reg 1 L ALUSrc $end
$var reg 1 ( MemRead $end
$var reg 1 ' MemWrite $end
$var reg 1 M MemtoReg $end
$var reg 1 N PCSrc $end
$var reg 1 O RegWrite $end
$var reg 3 P current_state [2:0] $end
$var reg 1 Q loadPC $end
$var reg 3 R next_state [2:0] $end
$scope module DATAPATH $end
$var wire 4 S ALUCtrl [3:0] $end
$var wire 1 L ALUSrc $end
$var wire 1 M MemtoReg $end
$var wire 1 N PCSrc $end
$var wire 1 O RegWrite $end
$var wire 32 T WriteBackData [31:0] $end
$var wire 32 U branch_offset [31:0] $end
$var wire 1 * clk $end
$var wire 32 V dReadData [31:0] $end
$var wire 1 Q loadPC $end
$var wire 1 W rst $end
$var wire 1 . zero $end
$var wire 5 X writeReg [4:0] $end
$var wire 32 Y selected_imm [31:0] $end
$var wire 5 Z readReg2 [4:0] $end
$var wire 5 [ readReg1 [4:0] $end
$var wire 32 \ readData2 [31:0] $end
$var wire 32 ] readData1 [31:0] $end
$var wire 7 ^ opcode [6:0] $end
$var wire 32 _ op2 [31:0] $end
$var wire 32 ` instr [31:0] $end
$var wire 32 a imm_S [31:0] $end
$var wire 32 b imm_I [31:0] $end
$var wire 32 c imm_B [31:0] $end
$var wire 32 d dWriteData [31:0] $end
$var wire 32 e dAddress [31:0] $end
$var parameter 32 f DATAWIDTH $end
$var parameter 32 g INITIAL_PC $end
$var parameter 7 h OPCODE_B_TYPE $end
$var parameter 7 i OPCODE_I_TYPE $end
$var parameter 7 j OPCODE_LW $end
$var parameter 7 k OPCODE_S_TYPE $end
$var reg 32 l PC [31:0] $end
$scope module ALU $end
$var wire 4 m alu_op [3:0] $end
$var wire 32 n op2 [31:0] $end
$var wire 32 o result [31:0] $end
$var wire 1 . zero $end
$var wire 32 p op1 [31:0] $end
$var parameter 4 q ALUOP_ADD $end
$var parameter 4 r ALUOP_AND $end
$var parameter 4 s ALUOP_ASR $end
$var parameter 4 t ALUOP_LSL $end
$var parameter 4 u ALUOP_LSR $end
$var parameter 4 v ALUOP_OR $end
$var parameter 4 w ALUOP_SLT $end
$var parameter 4 x ALUOP_SUB $end
$var parameter 4 y ALUOP_XOR $end
$var reg 32 z res [31:0] $end
$upscope $end
$scope module rf $end
$var wire 1 * clk $end
$var wire 5 { readReg1 [4:0] $end
$var wire 5 | readReg2 [4:0] $end
$var wire 1 O write $end
$var wire 32 } writeData [31:0] $end
$var wire 5 ~ writeReg [4:0] $end
$var parameter 32 !" DATAWIDTH $end
$var reg 32 "" readData1 [31:0] $end
$var reg 32 #" readData2 [31:0] $end
$var integer 32 $" i [31:0] $end
$upscope $end
$upscope $end
$scope module RAM $end
$var wire 9 %" addr [8:0] $end
$var wire 1 * clk $end
$var wire 32 &" din [31:0] $end
$var wire 1 ' we $end
$var reg 32 '" dout [31:0] $end
$upscope $end
$scope module ROM $end
$var wire 9 (" addr [8:0] $end
$var wire 1 * clk $end
$var reg 32 )" dout [31:0] $end
$upscope $end
$upscope $end
$upscope $end
$enddefinitions $end
$comment Show the parameter values. $end
$dumpall
b100000 !"
b101 y
b110 x
b100 w
b1 v
b1000 u
b1001 t
b1010 s
b0 r
b10 q
b100011 k
b11 j
b10011 i
b1100011 h
b10000000000000000000000 g
b100000 f
b100 J
b100011 I
b110011 H
b11 G
b10011 F
b1100011 E
b11 D
b10000000000000000000000 C
b0 B
b1 A
b10 @
b101 ?
b110 >
b100 =
b1 <
b1000 ;
b1001 :
b1010 9
b0 8
b10 7
$end
#10
$dumpvars
b11100000000000010010011 )"
b0 ("
bx '"
bx &"
bx %"
b100000 $"
bx #"
bx ""
b1 ~
bx }
b111 |
b0 {
bx z
bx p
bx o
bx n
bx m
b10000000000000000000000 l
bx e
bx d
b100000000000 c
b111 b
b1 a
b11100000000000010010011 `
bx _
b10011 ^
bx ]
bx \
b0 [
b111 Z
b111 Y
b1 X
zW
bx V
b100000000000 U
bx T
bx S
b1 R
0Q
b0 P
0O
0N
0M
0L
bx K
b10000000000000000000000 6
bx 5
bx 4
bx 3
b0 2
b0 1
b11100000000000010010011 0
b10011 /
x.
bx -
0,
b0 +
0*
bx )
0(
0'
b10000000000000000000000 &
bx %
b0 $
bx #
bx "
b11100000000000010010011 !
$end
#15
b10 )
b10 K
b10 S
b10 m
b10 R
b1 $
b1 P
1.
b0 %
b0 5
b0 T
b0 }
b0 "
b0 3
b0 d
b0 &"
b0 %"
b0 _
b0 n
b0 #
b0 4
b0 e
b0 o
b0 z
b0 \
b0 #"
b0 ]
b0 p
b0 ""
1*
#20
0*
#25
0.
b111 %
b111 5
b111 T
b111 }
b111 "
b111 3
b111 d
b111 &"
b111 %"
b111 #
b111 4
b111 e
b111 o
b111 z
b111 _
b111 n
1L
b100 R
b10 $
b10 P
1*
#30
0*
#35
1O
1Q
b0 R
b100 $
b100 P
1*
#40
0*
#45
1.
b0 %
b0 5
b0 T
b0 }
b0 "
b0 3
b0 d
b0 &"
b0 %"
b0 #
b0 4
b0 e
b0 o
b0 z
b0 _
b0 n
0Q
0L
0O
b1 R
b0 $
b0 P
b100 ("
b10000000000000000000100 &
b10000000000000000000100 6
b10000000000000000000100 l
1*
#50
0*
#55
b10101 Y
b10 X
b10 ~
b10101 Z
b10101 |
b10 U
b10 c
b10 a
b10101 b
b10 R
b1010100000000000100010011 !
b1010100000000000100010011 0
b1010100000000000100010011 `
b1010100000000000100010011 )"
b1 $
b1 P
1*
#60
0*
#65
0.
b10101 %
b10101 5
b10101 T
b10101 }
b10101 "
b10101 3
b10101 d
b10101 &"
b10101 %"
b10101 #
b10101 4
b10101 e
b10101 o
b10101 z
b10101 _
b10101 n
1L
b100 R
b10 $
b10 P
1*
#70
0*
#75
1O
1Q
b0 R
b100 $
b100 P
1*
#80
0*
#85
1.
b0 %
b0 5
b0 T
b0 }
b0 "
b0 3
b0 d
b0 &"
b0 %"
b0 #
b0 4
b0 e
b0 o
b0 z
b0 _
b0 n
0Q
0L
0O
b1 R
b0 $
b0 P
b1000 ("
b10000000000000000001000 &
b10000000000000000001000 6
b10000000000000000001000 l
1*
#90
0*
#95
b10 Y
b11 X
b11 ~
b10 Z
b10 |
b1 [
b1 {
b100000000010 U
b100000000010 c
b11 a
b10 b
b110011 ^
b110011 /
b10 R
b1000001000000110110011 !
b1000001000000110110011 0
b1000001000000110110011 `
b1000001000000110110011 )"
b1 $
b1 P
1*
#100
0*
#105
b100 R
b10 $
b10 P
0.
b11100 %
b11100 5
b11100 T
b11100 }
b11100 "
b11100 3
b11100 d
b11100 &"
b11100 %"
b10101 _
b10101 n
b11100 #
b11100 4
b11100 e
b11100 o
b11100 z
b10101 \
b10101 #"
b111 ]
b111 p
b111 ""
1*
#110
0*
#115
1O
1Q
b0 R
b100 $
b100 P
1*
#120
0*
#125
0Q
0O
b1 R
b0 $
b0 P
b1100 ("
b10000000000000000001100 &
b10000000000000000001100 6
b10000000000000000001100 l
1*
#130
0*
#135
b11111111111111111111111111110111 Y
b100 X
b100 ~
b10111 Z
b10111 |
b0 [
b0 {
b11111111111111111111011111100100 U
b11111111111111111111011111100100 c
b11111111111111111111111111100100 a
b11111111111111111111111111110111 b
b10011 ^
b1111111 1
b10011 /
b10 R
b11111111011100000000001000010011 !
b11111111011100000000001000010011 0
b11111111011100000000001000010011 `
b11111111011100000000001000010011 )"
b1 $
b1 P
1*
#140
0*
#145
1L
b100 R
b10 $
b10 P
0.
b11111111111111111111111111110111 %
b11111111111111111111111111110111 5
b11111111111111111111111111110111 T
b11111111111111111111111111110111 }
b11111111111111111111111111110111 "
b11111111111111111111111111110111 3
b11111111111111111111111111110111 d
b11111111111111111111111111110111 &"
b111110111 %"
b11111111111111111111111111110111 _
b11111111111111111111111111110111 n
b11111111111111111111111111110111 #
b11111111111111111111111111110111 4
b11111111111111111111111111110111 e
b11111111111111111111111111110111 o
b11111111111111111111111111110111 z
b0 \
b0 #"
b0 ]
b0 p
b0 ""
1*
#150
0*
#155
1O
1Q
b0 R
b100 $
b100 P
1*
#160
0*
#165
1.
b0 %
b0 5
b0 T
b0 }
b0 "
b0 3
b0 d
b0 &"
b0 %"
b0 #
b0 4
b0 e
b0 o
b0 z
b0 _
b0 n
0Q
0L
0O
b1 R
b0 $
b0 P
b10000 ("
b10000000000000000010000 &
b10000000000000000010000 6
b10000000000000000010000 l
1*
#170
0*
#175
b11111111111111111111111111101111 Y
b101 X
b101 ~
b1111 Z
b1111 |
b10 [
b10 {
b11111111111111111111111111100100 U
b11111111111111111111111111100100 c
b11111111111111111111111111100101 a
b11111111111111111111111111101111 b
b10 R
b11111110111100010000001010010011 !
b11111110111100010000001010010011 0
b11111110111100010000001010010011 `
b11111110111100010000001010010011 )"
b1 $
b1 P
1*
#180
0*
#185
b11111111111111111111111111101111 _
b11111111111111111111111111101111 n
1L
b100 R
b10 $
b10 P
0.
b100 %
b100 5
b100 T
b100 }
b100 "
b100 3
b100 d
b100 &"
b100 %"
b100 #
b100 4
b100 e
b100 o
b100 z
b10101 ]
b10101 p
b10101 ""
1*
#190
0*
#195
1O
1Q
b0 R
b100 $
b100 P
1*
#200
0*
#205
b10101 %
b10101 5
b10101 T
b10101 }
b10101 "
b10101 3
b10101 d
b10101 &"
b10101 %"
b10101 #
b10101 4
b10101 e
b10101 o
b10101 z
b0 _
b0 n
0Q
0L
0O
b1 R
b0 $
b0 P
b10100 ("
b10000000000000000010100 &
b10000000000000000010100 6
b10000000000000000010100 l
1*
#210
0*
#215
b100 Y
b110 X
b110 ~
b100 Z
b100 |
b101 [
b101 {
b110 U
b110 c
b110 a
b100 b
b110011 ^
b0 1
b110011 /
b10 R
b10000101000001100110011 !
b10000101000001100110011 0
b10000101000001100110011 `
b10000101000001100110011 )"
b1 $
b1 P
1*
#220
0*
#225
b100 R
b10 $
b10 P
b11111111111111111111111111111011 %
b11111111111111111111111111111011 5
b11111111111111111111111111111011 T
b11111111111111111111111111111011 }
b11111111111111111111111111111011 "
b11111111111111111111111111111011 3
b11111111111111111111111111111011 d
b11111111111111111111111111111011 &"
b111111011 %"
b11111111111111111111111111110111 _
b11111111111111111111111111110111 n
b11111111111111111111111111111011 #
b11111111111111111111111111111011 4
b11111111111111111111111111111011 e
b11111111111111111111111111111011 o
b11111111111111111111111111111011 z
b11111111111111111111111111110111 \
b11111111111111111111111111110111 #"
b100 ]
b100 p
b100 ""
1*
#230
0*
#235
1O
1Q
b0 R
b100 $
b100 P
1*
#240
0*
#245
0Q
0O
b1 R
b0 $
b0 P
b11000 ("
b10000000000000000011000 &
b10000000000000000011000 6
b10000000000000000011000 l
1*
#250
0*
#255
b10000000010 Y
b1101 %
b1101 5
b1101 T
b1101 }
b1101 "
b1101 3
b1101 d
b1101 &"
b1101 %"
b1101 #
b1101 4
b1101 e
b1101 o
b1101 z
b110 )
b110 K
b110 S
b110 m
b111 X
b111 ~
b10 Z
b10 |
b11 [
b11 {
b110000000110 U
b110000000110 c
b10000000111 a
b10000000010 b
b100000 1
b10 R
b1000000001000011000001110110011 !
b1000000001000011000001110110011 0
b1000000001000011000001110110011 `
b1000000001000011000001110110011 )"
b1 $
b1 P
1*
#260
0*
#265
b100 R
b10 $
b10 P
b111 %
b111 5
b111 T
b111 }
b111 "
b111 3
b111 d
b111 &"
b111 %"
b10101 _
b10101 n
b111 #
b111 4
b111 e
b111 o
b111 z
b10101 \
b10101 #"
b11100 ]
b11100 p
b11100 ""
1*
#270
0*
#275
1O
1Q
b0 R
b100 $
b100 P
1*
#280
0*
#285
0Q
0O
b1 R
b0 $
b0 P
b11100 ("
b10000000000000000011100 &
b10000000000000000011100 6
b10000000000000000011100 l
1*
#290
0*
#295
b101 Y
b11100000000000000000000000 %
b11100000000000000000000000 5
b11100000000000000000000000 T
b11100000000000000000000000 }
b11100000000000000000000000 "
b11100000000000000000000000 3
b11100000000000000000000000 d
b11100000000000000000000000 &"
b0 %"
b11100000000000000000000000 #
b11100000000000000000000000 4
b11100000000000000000000000 e
b11100000000000000000000000 o
b11100000000000000000000000 z
b1001 )
b1001 K
b1001 S
b1001 m
b1000 X
b1000 ~
b101 Z
b101 |
b111 [
b111 {
b1000 U
b1000 c
b1000 a
b101 b
b0 1
b1 2
b10 R
b10100111001010000110011 !
b10100111001010000110011 0
b10100111001010000110011 `
b10100111001010000110011 )"
b1 $
b1 P
1*
#300
0*
#305
b100 R
b10 $
b10 P
b1110000 %"
b1110000 %
b1110000 5
b1110000 T
b1110000 }
b1110000 "
b1110000 3
b1110000 d
b1110000 &"
b100 _
b100 n
b1110000 #
b1110000 4
b1110000 e
b1110000 o
b1110000 z
b100 \
b100 #"
b111 ]
b111 p
b111 ""
1*
#310
0*
#315
1O
1Q
b0 R
b100 $
b100 P
1*
#320
0*
#325
0Q
0O
b1 R
b0 $
b0 P
b100000 ("
b10000000000000000100000 &
b10000000000000000100000 6
b10000000000000000100000 l
1*
#330
0*
#335
b1000 Y
1.
b0 %
b0 5
b0 T
b0 }
b0 "
b0 3
b0 d
b0 &"
b0 %"
b0 #
b0 4
b0 e
b0 o
b0 z
b100 )
b100 K
b100 S
b100 m
b1001 X
b1001 ~
b1000 Z
b1000 |
b100 [
b100 {
b100000001000 U
b100000001000 c
b1001 a
b1000 b
b10 2
b10 R
b100000100010010010110011 !
b100000100010010010110011 0
b100000100010010010110011 `
b100000100010010010110011 )"
b1 $
b1 P
1*
#340
0*
#345
b100 R
b10 $
b10 P
0.
b1 %
b1 5
b1 T
b1 }
b1 "
b1 3
b1 d
b1 &"
b1 %"
b1110000 _
b1110000 n
b1 #
b1 4
b1 e
b1 o
b1 z
b1110000 \
b1110000 #"
b11111111111111111111111111110111 ]
b11111111111111111111111111110111 p
b11111111111111111111111111110111 ""
1*
#350
0*
#355
1O
1Q
b0 R
b100 $
b100 P
1*
#360
0*
#365
0Q
0O
b1 R
b0 $
b0 P
b100100 ("
b10000000000000000100100 &
b10000000000000000100100 6
b10000000000000000100100 l
1*
#370
0*
#375
b10 Y
b11111111111111111111111110000111 %
b11111111111111111111111110000111 5
b11111111111111111111111110000111 T
b11111111111111111111111110000111 }
b11111111111111111111111110000111 "
b11111111111111111111111110000111 3
b11111111111111111111111110000111 d
b11111111111111111111111110000111 &"
b110000111 %"
b11111111111111111111111110000111 #
b11111111111111111111111110000111 4
b11111111111111111111111110000111 e
b11111111111111111111111110000111 o
b11111111111111111111111110000111 z
b101 )
b101 K
b101 S
b101 m
b1010 X
b1010 ~
b10 Z
b10 |
b1000 [
b1000 {
b1010 U
b1010 c
b1010 a
b10 b
b100 2
b10 R
b1001000100010100110011 !
b1001000100010100110011 0
b1001000100010100110011 `
b1001000100010100110011 )"
b1 $
b1 P
1*
#380
0*
#385
b100 R
b10 $
b10 P
0.
b1100101 %
b1100101 5
b1100101 T
b1100101 }
b1100101 "
b1100101 3
b1100101 d
b1100101 &"
b1100101 %"
b10101 _
b10101 n
b1100101 #
b1100101 4
b1100101 e
b1100101 o
b1100101 z
b10101 \
b10101 #"
b1110000 ]
b1110000 p
b1110000 ""
1*
#390
0*
#395
1O
1Q
b0 R
b100 $
b100 P
1*
#400
0*
#405
0Q
0O
b1 R
b0 $
b0 P
b101000 ("
b10000000000000000101000 &
b10000000000000000101000 6
b10000000000000000101000 l
1*
#410
0*
#415
b1000 Y
b10000 %
b10000 5
b10000 T
b10000 }
b10000 "
b10000 3
b10000 d
b10000 &"
b10000 %"
b10000 #
b10000 4
b10000 e
b10000 o
b10000 z
b0 )
b0 K
b0 S
b0 m
b1011 X
b1011 ~
b1000 Z
b1000 |
b1010 [
b1010 {
b100000001010 U
b100000001010 c
b1011 a
b1000 b
b111 2
b10 R
b100001010111010110110011 !
b100001010111010110110011 0
b100001010111010110110011 `
b100001010111010110110011 )"
b1 $
b1 P
1*
#420
0*
#425
b100 R
b10 $
b10 P
b1100000 %
b1100000 5
b1100000 T
b1100000 }
b1100000 "
b1100000 3
b1100000 d
b1100000 &"
b1100000 %"
b1110000 _
b1110000 n
b1100000 #
b1100000 4
b1100000 e
b1100000 o
b1100000 z
b1110000 \
b1110000 #"
b1100101 ]
b1100101 p
b1100101 ""
1*
#430
0*
#435
1O
1Q
b0 R
b100 $
b100 P
1*
#440
0*
#445
0Q
0O
b1 R
b0 $
b0 P
b101100 ("
b10000000000000000101100 &
b10000000000000000101100 6
b10000000000000000101100 l
1*
#450
0*
#455
b1001 Y
1.
b0 %
b0 5
b0 T
b0 }
b0 "
b0 3
b0 d
b0 &"
b0 %"
b0 #
b0 4
b0 e
b0 o
b0 z
b1000 )
b1000 K
b1000 S
b1000 m
b1100 X
b1100 ~
b1001 Z
b1001 |
b1011 [
b1011 {
b1100 U
b1100 c
b1100 a
b1001 b
b101 2
b10 R
b100101011101011000110011 !
b100101011101011000110011 0
b100101011101011000110011 `
b100101011101011000110011 )"
b1 $
b1 P
1*
#460
0*
#465
b100 R
b10 $
b10 P
0.
b110000 %
b110000 5
b110000 T
b110000 }
b110000 "
b110000 3
b110000 d
b110000 &"
b110000 %"
b110000 #
b110000 4
b110000 e
b110000 o
b110000 z
b1 _
b1 n
b1 \
b1 #"
b1100000 ]
b1100000 p
b1100000 ""
1*
#470
0*
#475
1O
1Q
b0 R
b100 $
b100 P
1*
#480
0*
#485
0Q
0O
b1 R
b0 $
b0 P
b110000 ("
b10000000000000000110000 &
b10000000000000000110000 6
b10000000000000000110000 l
1*
#490
0*
#495
b11 Y
b1100001 %
b1100001 5
b1100001 T
b1100001 }
b1100001 "
b1100001 3
b1100001 d
b1100001 &"
b1100001 %"
b1100001 #
b1100001 4
b1100001 e
b1100001 o
b1100001 z
b1 )
b1 K
b1 S
b1 m
b1101 X
b1101 ~
b11 Z
b11 |
b1100 [
b1100 {
b100000001100 U
b100000001100 c
b1101 a
b11 b
b110 2
b10 R
b1101100110011010110011 !
b1101100110011010110011 0
b1101100110011010110011 `
b1101100110011010110011 )"
b1 $
b1 P
1*
#500
0*
#505
b100 R
b10 $
b10 P
b111100 %
b111100 5
b111100 T
b111100 }
b111100 "
b111100 3
b111100 d
b111100 &"
b111100 %"
b11100 _
b11100 n
b111100 #
b111100 4
b111100 e
b111100 o
b111100 z
b11100 \
b11100 #"
b110000 ]
b110000 p
b110000 ""
1*
#510
0*
#515
1O
1Q
b0 R
b100 $
b100 P
1*
#520
0*
#525
0Q
0O
b1 R
b0 $
b0 P
b110100 ("
b10000000000000000110100 &
b10000000000000000110100 6
b10000000000000000110100 l
1*
#530
0*
#535
b10000001001 Y
1.
b0 %
b0 5
b0 T
b0 }
b0 "
b0 3
b0 d
b0 &"
b0 %"
b0 #
b0 4
b0 e
b0 o
b0 z
b1010 )
b1010 K
b1010 S
b1010 m
b1110 X
b1110 ~
b1001 Z
b1001 |
b100 [
b100 {
b10000001110 U
b10000001110 c
b10000001110 a
b10000001001 b
b100000 1
b101 2
b10 R
b1000000100100100101011100110011 !
b1000000100100100101011100110011 0
b1000000100100100101011100110011 `
b1000000100100100101011100110011 )"
b1 $
b1 P
1*
#540
0*
#545
b100 R
b10 $
b10 P
0.
b11111111111111111111111111111011 %
b11111111111111111111111111111011 5
b11111111111111111111111111111011 T
b11111111111111111111111111111011 }
b11111111111111111111111111111011 "
b11111111111111111111111111111011 3
b11111111111111111111111111111011 d
b11111111111111111111111111111011 &"
b111111011 %"
b1 _
b1 n
b11111111111111111111111111111011 #
b11111111111111111111111111111011 4
b11111111111111111111111111111011 e
b11111111111111111111111111111011 o
b11111111111111111111111111111011 z
b1 \
b1 #"
b11111111111111111111111111110111 ]
b11111111111111111111111111110111 p
b11111111111111111111111111110111 ""
1*
#550
0*
#555
1O
1Q
b0 R
b100 $
b100 P
1*
#560
0*
#565
0Q
0O
b1 R
b0 $
b0 P
b111000 ("
b10000000000000000111000 &
b10000000000000000111000 6
b10000000000000000111000 l
1*
#570
0*
#575
b0 Y
b11111111111111111111111111111000 %
b11111111111111111111111111111000 5
b11111111111111111111111111111000 T
b11111111111111111111111111111000 }
b11111111111111111111111111111000 "
b11111111111111111111111111111000 3
b11111111111111111111111111111000 d
b11111111111111111111111111111000 &"
b111111000 %"
b11111111111111111111111111111000 #
b11111111111111111111111111111000 4
b11111111111111111111111111111000 e
b11111111111111111111111111111000 o
b11111111111111111111111111111000 z
b10 )
b10 K
b10 S
b10 m
b0 X
b0 ~
b1011 Z
b1011 |
b101 [
b101 {
b0 U
b0 c
b0 a
b1011 b
b100011 ^
b0 1
b10 2
b100011 /
b10 R
b101100101010000000100011 !
b101100101010000000100011 0
b101100101010000000100011 `
b101100101010000000100011 )"
b1 $
b1 P
1*
#580
0*
#585
1L
b11 R
b10 $
b10 P
b100 %
b100 5
b100 T
b100 }
b100 "
b100 3
b100 d
b100 &"
b100 %"
b0 _
b0 n
b100 #
b100 4
b100 e
b100 o
b100 z
b1100000 \
b1100000 #"
b100 ]
b100 p
b100 ""
1*
#590
0*
#595
1'
b100 R
b11 $
b11 P
1*
#600
0*
#605
1O
1Q
b0 R
b100 $
b100 P
1*
#610
0*
#615
b1100100 %
b1100100 5
b1100100 T
b1100100 }
b1100100 "
b1100100 3
b1100100 d
b1100100 &"
b1100100 %"
b1100100 #
b1100100 4
b1100100 e
b1100100 o
b1100100 z
b1100000 _
b1100000 n
0Q
0L
0O
0'
b1 R
b0 $
b0 P
b111100 ("
b10000000000000000111100 &
b10000000000000000111100 6
b10000000000000000111100 l
1*
#620
0*
#625
b1111 X
b1111 ~
b0 Z
b0 |
b100000001110 U
b100000001110 c
b1111 a
b0 b
b11 ^
b11 /
b10 R
b101010011110000011 !
b101010011110000011 0
b101010011110000011 `
b101010011110000011 )"
b1 $
b1 P
1*
#630
0*
#635
1M
1L
b11 R
b10 $
b10 P
bx %
bx 5
bx T
bx }
bx "
bx 3
bx d
bx &"
b100 %"
b100 #
b100 4
b100 e
b100 o
b100 z
b0 _
b0 n
b100 \
b100 #"
1*
#640
0*
#645
1(
b100 R
b11 $
b11 P
b0x00 %
b0x00 5
b0x00 T
b0x00 }
b0x00 "
b0x00 3
b0x00 d
b0x00 &"
b0x00 -
b0x00 V
b100 '"
1*
#650
0*
#655
1O
1Q
b0 R
b100 $
b100 P
1*
#660
0*
#665
b1000 %"
b1000 #
b1000 4
b1000 e
b1000 o
b1000 z
b1000 %
b1000 5
b1000 T
b1000 }
b1000 "
b1000 3
b1000 d
b1000 &"
b100 _
b100 n
0Q
0M
0L
0O
0(
b1 R
b0 $
b0 P
b1000000 ("
b10000000000000001000000 &
b10000000000000001000000 6
b10000000000000001000000 l
1*
#670
0*
#675
b100 %
b100 5
b100 T
b100 }
b100 "
b100 3
b100 d
b100 &"
b100 %"
b100 #
b100 4
b100 e
b100 o
b100 z
b11111111111111111111111111010011 Y
b0 )
b0 K
b0 S
b0 m
b10000 X
b10000 ~
b10011 Z
b10011 |
b1000 [
b1000 {
b11111111111111111111011111010000 U
b11111111111111111111011111010000 c
b11111111111111111111111111010000 a
b11111111111111111111111111010011 b
b10011 ^
b1111110 1
b111 2
b10011 /
b10 R
b11111101001101000111100000010011 !
b11111101001101000111100000010011 0
b11111101001101000111100000010011 `
b11111101001101000111100000010011 )"
b1 $
b1 P
bx -
bx V
bx '"
1*
#680
0*
#685
1L
b100 R
b10 $
b10 P
0.
b1010000 %
b1010000 5
b1010000 T
b1010000 }
b1010000 "
b1010000 3
b1010000 d
b1010000 &"
b1010000 %"
b11111111111111111111111111010011 _
b11111111111111111111111111010011 n
b1010000 #
b1010000 4
b1010000 e
b1010000 o
b1010000 z
b0 \
b0 #"
b1110000 ]
b1110000 p
b1110000 ""
b0x00 -
b0x00 V
b100 '"
1*
#690
0*
#695
1O
1Q
b0 R
b100 $
b100 P
bx -
bx V
bx '"
1*
#700
0*
#705
1.
b0 %
b0 5
b0 T
b0 }
b0 "
b0 3
b0 d
b0 &"
b0 %"
b0 #
b0 4
b0 e
b0 o
b0 z
b0 _
b0 n
0Q
0L
0O
b1 R
b0 $
b0 P
b1000100 ("
b10000000000000001000100 &
b10000000000000001000100 6
b10000000000000001000100 l
1*
#710
0*
#715
0.
b1110000 %
b1110000 5
b1110000 T
b1110000 }
b1110000 "
b1110000 3
b1110000 d
b1110000 &"
b1110000 %"
b10110 Y
b1110000 #
b1110000 4
b1110000 e
b1110000 o
b1110000 z
b1 )
b1 K
b1 S
b1 m
b10001 X
b10001 ~
b10110 Z
b10110 |
b10000 [
b10000 {
b100000010000 U
b100000010000 c
b10001 a
b10110 b
b0 1
b110 2
b10 R
b1011010000110100010010011 !
b1011010000110100010010011 0
b1011010000110100010010011 `
b1011010000110100010010011 )"
b1 $
b1 P
1*
#720
0*
#725
b10110 _
b10110 n
1L
b100 R
b10 $
b10 P
b1010110 %
b1010110 5
b1010110 T
b1010110 }
b1010110 "
b1010110 3
b1010110 d
b1010110 &"
b1010110 %"
b1010110 #
b1010110 4
b1010110 e
b1010110 o
b1010110 z
b1010000 ]
b1010000 p
b1010000 ""
1*
#730
0*
#735
1O
1Q
b0 R
b100 $
b100 P
1*
#740
0*
#745
b1010000 %
b1010000 5
b1010000 T
b1010000 }
b1010000 "
b1010000 3
b1010000 d
b1010000 &"
b1010000 %"
b1010000 #
b1010000 4
b1010000 e
b1010000 o
b1010000 z
b0 _
b0 n
0Q
0L
0O
b1 R
b0 $
b0 P
b1001000 ("
b10000000000000001001000 &
b10000000000000001001000 6
b10000000000000001001000 l
1*
#750
0*
#755
b1 Y
b1000 )
b1000 K
b1000 S
b1000 m
b10010 X
b10010 ~
b1 Z
b1 |
b1101 [
b1101 {
b10010 U
b10010 c
b10010 a
b1 b
b101 2
b10 R
b101101101100100010011 !
b101101101100100010011 0
b101101101100100010011 `
b101101101100100010011 )"
b1 $
b1 P
1*
#760
0*
#765
1L
b100 R
b10 $
b10 P
0.
b11110 %
b11110 5
b11110 T
b11110 }
b11110 "
b11110 3
b11110 d
b11110 &"
b11110 %"
b1 _
b1 n
b11110 #
b11110 4
b11110 e
b11110 o
b11110 z
b111 \
b111 #"
b111100 ]
b111100 p
b111100 ""
1*
#770
0*
#775
1O
1Q
b0 R
b100 $
b100 P
1*
#780
0*
#785
1.
b0 %
b0 5
b0 T
b0 }
b0 "
b0 3
b0 d
b0 &"
b0 %"
b0 #
b0 4
b0 e
b0 o
b0 z
b111 _
b111 n
0Q
0L
0O
b1 R
b0 $
b0 P
b1001100 ("
b10000000000000001001100 &
b10000000000000001001100 6
b10000000000000001001100 l
1*
#790
0*
#795
b10000 Y
0.
b110101 %
b110101 5
b110101 T
b110101 }
b110101 "
b110101 3
b110101 d
b110101 &"
b110101 %"
b110101 #
b110101 4
b110101 e
b110101 o
b110101 z
b110 )
b110 K
b110 S
b110 m
b10000 X
b10000 ~
b1011 Z
b1011 |
b1111 [
b1111 {
b10000 U
b10000 c
b10000 a
b1011 b
b1100011 ^
b0 2
b1100011 /
b10 R
b101101111000100001100011 !
b101101111000100001100011 0
b101101111000100001100011 `
b101101111000100001100011 )"
b1 $
b1 P
1*
#800
0*
#805
b100 R
b10 $
b10 P
x.
bx %
bx 5
bx T
bx }
bx "
bx 3
bx d
bx &"
bx %"
b1100000 _
b1100000 n
bx #
bx 4
bx e
bx o
bx z
b1100000 \
b1100000 #"
b0x00 ]
b0x00 p
b0x00 ""
1*
#810
0*
#815
1O
1Q
b0 R
b100 $
b100 P
1*
#820
0*
#825
0Q
0O
b1 R
b0 $
b0 P
b1010000 ("
b10000000000000001010000 &
b10000000000000001010000 6
b10000000000000001010000 l
1*
#830
0*
#835
b0 Y
b0 X
b0 ~
b0 Z
b0 |
b0 [
b0 {
b0 U
b0 c
b0 a
b0 b
b0 ^
b0 /
b10 R
b0 !
b0 0
b0 `
b0 )"
b1 $
b1 P
1*
#840
0*
#845
b100 R
b10 $
b10 P
bx _
bx n
bx \
bx #"
bx ]
bx p
bx ""
1*
#850
0*
#855
1O
1Q
b0 R
b100 $
b100 P
1*
