testbench.vcd
$date
	Fri Nov 29 17:26:19 2024
$end
$version
	Icarus Verilog
$end
$timescale
	1s
$end
$scope module top_proc_tb $end
$var wire 32 ! instr [31:0] $end
$var wire 32 " dWriteData [31:0] $end
$var wire 32 # dAddress [31:0] $end
$var wire 3 $ current_state [2:0] $end
$var wire 32 % WriteBackData [31:0] $end
$var wire 32 & PC [31:0] $end
$var wire 1 ' MemWrite $end
$var wire 1 ( MemRead $end
$var wire 4 ) ALUCtrl [3:0] $end
$var reg 1 * clk $end
$var reg 32 + dReadData [31:0] $end
$var reg 1 , rst $end
$scope module uut $end
$var wire 1 * clk $end
$var wire 32 - dReadData [31:0] $end
$var wire 1 , rst $end
$var wire 7 . opcode [6:0] $end
$var wire 32 / instr [31:0] $end
$var wire 7 0 funct7 [6:0] $end
$var wire 3 1 funct3 [2:0] $end
$var wire 32 2 dWriteData [31:0] $end
$var wire 32 3 dAddress [31:0] $end
$var wire 32 4 WriteBackData [31:0] $end
$var wire 32 5 PC [31:0] $end
$var parameter 4 6 ALUOP_ADD $end
$var parameter 4 7 ALUOP_AND $end
$var parameter 4 8 ALUOP_ASR $end
$var parameter 4 9 ALUOP_LSL $end
$var parameter 4 : ALUOP_LSR $end
$var parameter 4 ; ALUOP_OR $end
$var parameter 4 < ALUOP_SLT $end
$var parameter 4 = ALUOP_SUB $end
$var parameter 4 > ALUOP_XOR $end
$var parameter 3 ? EX $end
$var parameter 3 @ ID $end
$var parameter 3 A IF $end
$var parameter 32 B INITIAL_PC $end
$var parameter 3 C MEM $end
$var parameter 7 D OPCODE_B_TYPE $end
$var parameter 7 E OPCODE_I_TYPE $end
$var parameter 7 F OPCODE_LW $end
$var parameter 7 G OPCODE_R_TYPE $end
$var parameter 7 H OPCODE_S_TYPE $end
$var parameter 3 I WB $end
$var reg 4 J ALUCtrl [3:0] $end
$var reg 1 K ALUSrc $end
$var reg 1 ( MemRead $end
$var reg 1 ' MemWrite $end
$var reg 1 L MemtoReg $end
$var reg 1 M PCSrc $end
$var reg 1 N RegWrite $end
$var reg 3 O current_state [2:0] $end
$var reg 1 P loadPC $end
$var reg 3 Q next_state [2:0] $end
$var reg 1 R zero $end
$scope module DATAPATH $end
$var wire 4 S ALUCtrl [3:0] $end
$var wire 1 K ALUSrc $end
$var wire 1 L MemtoReg $end
$var wire 1 M PCSrc $end
$var wire 1 N RegWrite $end
$var wire 32 T WriteBackData [31:0] $end
$var wire 32 U branch_offset [31:0] $end
$var wire 1 * clk $end
$var wire 32 V dReadData [31:0] $end
$var wire 1 P loadPC $end
$var wire 1 W rst $end
$var wire 1 X zero $end
$var wire 5 Y writeReg [4:0] $end
$var wire 32 Z selected_imm [31:0] $end
$var wire 5 [ readReg2 [4:0] $end
$var wire 5 \ readReg1 [4:0] $end
$var wire 32 ] readData2 [31:0] $end
$var wire 32 ^ readData1 [31:0] $end
$var wire 7 _ opcode [6:0] $end
$var wire 32 ` op2 [31:0] $end
$var wire 32 a op1 [31:0] $end
$var wire 32 b instr [31:0] $end
$var wire 32 c imm_S [31:0] $end
$var wire 32 d imm_I [31:0] $end
$var wire 32 e imm_B [31:0] $end
$var wire 32 f dWriteData [31:0] $end
$var wire 32 g dAddress [31:0] $end
$var parameter 32 h DATAWIDTH $end
$var parameter 32 i INITIAL_PC $end
$var parameter 7 j OPCODE_B_TYPE $end
$var parameter 7 k OPCODE_I_TYPE $end
$var parameter 7 l OPCODE_LW $end
$var parameter 7 m OPCODE_S_TYPE $end
$var reg 32 n PC [31:0] $end
$scope module ALU $end
$var wire 4 o alu_op [3:0] $end
$var wire 32 p op1 [31:0] $end
$var wire 32 q op2 [31:0] $end
$var wire 32 r result [31:0] $end
$var wire 1 X zero $end
$var parameter 4 s ALUOP_ADD $end
$var parameter 4 t ALUOP_AND $end
$var parameter 4 u ALUOP_ASR $end
$var parameter 4 v ALUOP_LSL $end
$var parameter 4 w ALUOP_LSR $end
$var parameter 4 x ALUOP_OR $end
$var parameter 4 y ALUOP_SLT $end
$var parameter 4 z ALUOP_SUB $end
$var parameter 4 { ALUOP_XOR $end
$var reg 32 | res [31:0] $end
$upscope $end
$scope module rf $end
$var wire 1 * clk $end
$var wire 5 } readReg1 [4:0] $end
$var wire 5 ~ readReg2 [4:0] $end
$var wire 1 N write $end
$var wire 32 !" writeData [31:0] $end
$var wire 5 "" writeReg [4:0] $end
$var parameter 32 #" DATAWIDTH $end
$var reg 32 $" readData1 [31:0] $end
$var reg 32 %" readData2 [31:0] $end
$var integer 32 &" i [31:0] $end
$upscope $end
$upscope $end
$scope module RAM $end
$var wire 9 '" addr [8:0] $end
$var wire 1 * clk $end
$var wire 32 (" din [31:0] $end
$var wire 1 ' we $end
$var reg 32 )" dout [31:0] $end
$upscope $end
$scope module ROM $end
$var wire 9 *" addr [8:0] $end
$var wire 1 * clk $end
$var reg 32 +" dout [31:0] $end
$upscope $end
$upscope $end
$upscope $end
$enddefinitions $end
$comment Show the parameter values. $end
$dumpall
b100000 #"
b101 {
b110 z
b100 y
b1 x
b1000 w
b1001 v
b1010 u
b0 t
b10 s
b100011 m
b11 l
b10011 k
b1100011 j
b10000000000000000000000 i
b100000 h
b100 I
b100011 H
b110011 G
b11 F
b10011 E
b1100011 D
b11 C
b10000000000000000000000 B
b0 A
b1 @
b10 ?
b101 >
b110 =
b100 <
b1 ;
b1000 :
b1001 9
b1010 8
b0 7
b10 6
$end
#0
$dumpvars
bx +"
b0 *"
bx )"
bx ("
bx '"
b100000 &"
bx %"
bx $"
bx ""
bx !"
bx ~
bx }
bx |
bx r
bx q
bx p
bx o
b10000000000000000000000 n
bx g
bx f
bx0 e
bx d
bx c
bx b
bx a
bx `
bx _
bx ^
bx ]
bx \
bx [
bx Z
bx Y
xX
zW
bx V
bx0 U
bx T
bx S
xR
bx Q
xP
bx O
xN
xM
xL
xK
bx J
b10000000000000000000000 5
bx 4
bx 3
bx 2
bx 1
bx 0
bx /
bx .
bx -
0,
b0 +
0*
bx )
x(
x'
b10000000000000000000000 &
bx %
bx $
bx #
bx "
bx !
$end
#5
b0 %
b0 4
b0 T
b0 "
b0 2
b0 f
b0 !"
b0 ("
1X
b0 '"
b0 #
b0 3
b0 g
b0 r
b0 |
b0xxx `
b0xxx q
b0 a
b0 p
b0 ]
b0 %"
b0 ^
b0 $"
b111 Z
b0 Q
b1 Y
b1 ""
b111 [
b111 ~
b0 \
b0 }
b100000000000 U
b100000000000 e
b1 c
b111 d
b10011 _
b0 0
b0 1
b10011 .
b11100000000000010010011 !
b11100000000000010010011 /
b11100000000000010010011 b
b11100000000000010010011 +"
1*
#10
0*
#15
b0 `
b0 q
0M
0P
0L
0K
0N
0'
0(
b1 Q
b0 $
b0 O
1*
#20
0*
#25
0X
b111 '"
b111 #
b111 3
b111 g
b111 r
b111 |
b111 `
b111 q
b10 )
b10 J
b10 S
b10 o
1N
1K
b10 Q
b1 $
b1 O
1*
#30
0*
#35
b111 %
b111 4
b111 T
b111 "
b111 2
b111 f
b111 !"
b111 ("
1L
b100 Q
b10 $
b10 O
1*
#40
0*
#45
1P
b0 Q
b100 $
b100 O
1*
#50
0*
#55
1X
b0 '"
b0 %
b0 4
b0 T
b0 "
b0 2
b0 f
b0 !"
b0 ("
b0 #
b0 3
b0 g
b0 r
b0 |
b0 `
b0 q
0P
0L
0K
0N
b1 Q
b0 $
b0 O
b100 *"
b10000000000000000000100 &
b10000000000000000000100 5
b10000000000000000000100 n
1*
#60
0*
#65
0X
b10101 '"
b10101 Z
b10101 #
b10101 3
b10101 g
b10101 r
b10101 |
b10101 `
b10101 q
b10 Y
b10 ""
b10101 [
b10101 ~
b10 U
b10 e
b10 c
b10101 d
1N
1K
b10 Q
b1010100000000000100010011 !
b1010100000000000100010011 /
b1010100000000000100010011 b
b1010100000000000100010011 +"
b1 $
b1 O
1*
#70
0*
#75
b10101 %
b10101 4
b10101 T
b10101 "
b10101 2
b10101 f
b10101 !"
b10101 ("
1L
b100 Q
b10 $
b10 O
1*
#80
0*
#85
1P
b0 Q
b100 $
b100 O
1*
#90
0*
#95
1X
b0 '"
b0 %
b0 4
b0 T
b0 "
b0 2
b0 f
b0 !"
b0 ("
b0 #
b0 3
b0 g
b0 r
b0 |
b0 `
b0 q
0P
0L
0K
0N
b1 Q
b0 $
b0 O
b1000 *"
b10000000000000000001000 &
b10000000000000000001000 5
b10000000000000000001000 n
1*
#100
0*
#105
b111 %
b111 4
b111 T
b111 "
b111 2
b111 f
b111 !"
b111 ("
b111 a
b111 p
b10101 ]
b10101 %"
b111 ^
b111 $"
b10 Z
0X
b1001 '"
b1001 #
b1001 3
b1001 g
b1001 r
b1001 |
b10 `
b10 q
b11 Y
b11 ""
b10 [
b10 ~
b1 \
b1 }
b100000000010 U
b100000000010 e
b11 c
b10 d
b110011 _
b110011 .
1N
1K
b10 Q
b1000001000000110110011 !
b1000001000000110110011 /
b1000001000000110110011 b
b1000001000000110110011 +"
b1 $
b1 O
1*
#110
0*
#115
b1001 %
b1001 4
b1001 T
b1001 "
b1001 2
b1001 f
b1001 !"
b1001 ("
1L
b100 Q
b10 $
b10 O
1*
#120
0*
#125
1P
b0 Q
b100 $
b100 O
1*
#130
0*
#135
b11100 '"
b111 %
b111 4
b111 T
b111 "
b111 2
b111 f
b111 !"
b111 ("
b11100 #
b11100 3
b11100 g
b11100 r
b11100 |
b10101 `
b10101 q
0P
0L
0K
0N
b1 Q
b0 $
b0 O
b1100 *"
b10000000000000000001100 &
b10000000000000000001100 5
b10000000000000000001100 n
1*
#140
0*
#145
b0 %
b0 4
b0 T
b0 "
b0 2
b0 f
b0 !"
b0 ("
b0 a
b0 p
b0 ]
b0 %"
b0 ^
b0 $"
b111110111 '"
b11111111111111111111111111110111 #
b11111111111111111111111111110111 3
b11111111111111111111111111110111 g
b11111111111111111111111111110111 r
b11111111111111111111111111110111 |
b11111111111111111111111111110111 Z
b11111111111111111111111111110111 `
b11111111111111111111111111110111 q
1K
b100 Y
b100 ""
b10111 [
b10111 ~
b0 \
b0 }
b11111111111111111111011111100100 U
b11111111111111111111011111100100 e
b11111111111111111111111111100100 c
b11111111111111111111111111110111 d
b10011 _
b1111111 0
b10011 .
1N
b10 Q
b11111111011100000000001000010011 !
b11111111011100000000001000010011 /
b11111111011100000000001000010011 b
b11111111011100000000001000010011 +"
b1 $
b1 O
1*
#150
0*
#155
b11111111111111111111111111110111 %
b11111111111111111111111111110111 4
b11111111111111111111111111110111 T
b11111111111111111111111111110111 "
b11111111111111111111111111110111 2
b11111111111111111111111111110111 f
b11111111111111111111111111110111 !"
b11111111111111111111111111110111 ("
1L
b100 Q
b10 $
b10 O
1*
#160
0*
#165
1P
b0 Q
b100 $
b100 O
1*
#170
0*
#175
1X
b0 '"
b0 %
b0 4
b0 T
b0 "
b0 2
b0 f
b0 !"
b0 ("
b0 #
b0 3
b0 g
b0 r
b0 |
b0 `
b0 q
0P
0L
0K
0N
b1 Q
b0 $
b0 O
b10000 *"
b10000000000000000010000 &
b10000000000000000010000 5
b10000000000000000010000 n
1*
#180
0*
#185
b10101 %
b10101 4
b10101 T
b10101 "
b10101 2
b10101 f
b10101 !"
b10101 ("
b10101 a
b10101 p
b10101 ^
b10101 $"
0X
b100 '"
b11111111111111111111111111101111 Z
b100 #
b100 3
b100 g
b100 r
b100 |
b11111111111111111111111111101111 `
b11111111111111111111111111101111 q
b101 Y
b101 ""
b1111 [
b1111 ~
b10 \
b10 }
b11111111111111111111111111100100 U
b11111111111111111111111111100100 e
b11111111111111111111111111100101 c
b11111111111111111111111111101111 d
1N
1K
b10 Q
b11111110111100010000001010010011 !
b11111110111100010000001010010011 /
b11111110111100010000001010010011 b
b11111110111100010000001010010011 +"
b1 $
b1 O
1*
#190
0*
#195
b100 %
b100 4
b100 T
b100 "
b100 2
b100 f
b100 !"
b100 ("
1L
b100 Q
b10 $
b10 O
1*
#200
0*
#205
1P
b0 Q
b100 $
b100 O
1*
#210
0*
#215
b10101 '"
b10101 %
b10101 4
b10101 T
b10101 "
b10101 2
b10101 f
b10101 !"
b10101 ("
b10101 #
b10101 3
b10101 g
b10101 r
b10101 |
b0 `
b0 q
0P
0L
0K
0N
b1 Q
b0 $
b0 O
b10100 *"
b10000000000000000010100 &
b10000000000000000010100 5
b10000000000000000010100 n
1*
#220
0*
#225
b100 %
b100 4
b100 T
b100 "
b100 2
b100 f
b100 !"
b100 ("
b100 a
b100 p
b11111111111111111111111111110111 ]
b11111111111111111111111111110111 %"
b100 ^
b100 $"
b100 Z
b1000 '"
b1000 #
b1000 3
b1000 g
b1000 r
b1000 |
b100 `
b100 q
b110 Y
b110 ""
b100 [
b100 ~
b101 \
b101 }
b110 U
b110 e
b110 c
b100 d
b110011 _
b0 0
b110011 .
1N
1K
b10 Q
b10000101000001100110011 !
b10000101000001100110011 /
b10000101000001100110011 b
b10000101000001100110011 +"
b1 $
b1 O
1*
#230
0*
#235
b1000 %
b1000 4
b1000 T
b1000 "
b1000 2
b1000 f
b1000 !"
b1000 ("
1L
b100 Q
b10 $
b10 O
1*
#240
0*
#245
1P
b0 Q
b100 $
b100 O
1*
#250
0*
#255
b111111011 '"
b100 %
b100 4
b100 T
b100 "
b100 2
b100 f
b100 !"
b100 ("
b11111111111111111111111111111011 #
b11111111111111111111111111111011 3
b11111111111111111111111111111011 g
b11111111111111111111111111111011 r
b11111111111111111111111111111011 |
b11111111111111111111111111110111 `
b11111111111111111111111111110111 q
0P
0L
0K
0N
b1 Q
b0 $
b0 O
b11000 *"
b10000000000000000011000 &
b10000000000000000011000 5
b10000000000000000011000 n
1*
#260
0*
#265
b1001 %
b1001 4
b1001 T
b1001 "
b1001 2
b1001 f
b1001 !"
b1001 ("
b10101 `
b10101 q
b1001 a
b1001 p
b10101 ]
b10101 %"
b1001 ^
b1001 $"
b10000000010 Z
b111110100 '"
b11111111111111111111111111110100 #
b11111111111111111111111111110100 3
b11111111111111111111111111110100 g
b11111111111111111111111111110100 r
b11111111111111111111111111110100 |
b110 )
b110 J
b110 S
b110 o
b111 Y
b111 ""
b10 [
b10 ~
b11 \
b11 }
b110000000110 U
b110000000110 e
b10000000111 c
b10000000010 d
b100000 0
1N
b10 Q
b1000000001000011000001110110011 !
b1000000001000011000001110110011 /
b1000000001000011000001110110011 b
b1000000001000011000001110110011 +"
b1 $
b1 O
1*
#270
0*
#275
b11111111111111111111111111110100 %
b11111111111111111111111111110100 4
b11111111111111111111111111110100 T
b11111111111111111111111111110100 "
b11111111111111111111111111110100 2
b11111111111111111111111111110100 f
b11111111111111111111111111110100 !"
b11111111111111111111111111110100 ("
1L
b100 Q
b10 $
b10 O
1*
#280
0*
#285
1P
b0 Q
b100 $
b100 O
1*
#290
0*
#295
b1001 %
b1001 4
b1001 T
b1001 "
b1001 2
b1001 f
b1001 !"
b1001 ("
0P
0L
0N
b1 Q
b0 $
b0 O
b11100 *"
b10000000000000000011100 &
b10000000000000000011100 5
b10000000000000000011100 n
1*
#300
0*
#305
b11111111111111111111111111110100 %
b11111111111111111111111111110100 4
b11111111111111111111111111110100 T
b11111111111111111111111111110100 "
b11111111111111111111111111110100 2
b11111111111111111111111111110100 f
b11111111111111111111111111110100 !"
b11111111111111111111111111110100 ("
b100 `
b100 q
b11111111111111111111111111110100 a
b11111111111111111111111111110100 p
b100 ]
b100 %"
b11111111111111111111111111110100 ^
b11111111111111111111111111110100 $"
b101 Z
b101000000 '"
b11111111111111111111111101000000 #
b11111111111111111111111101000000 3
b11111111111111111111111101000000 g
b11111111111111111111111101000000 r
b11111111111111111111111101000000 |
b1001 )
b1001 J
b1001 S
b1001 o
b1000 Y
b1000 ""
b101 [
b101 ~
b111 \
b111 }
b1000 U
b1000 e
b1000 c
b101 d
b0 0
b1 1
1N
b10 Q
b10100111001010000110011 !
b10100111001010000110011 /
b10100111001010000110011 b
b10100111001010000110011 +"
b1 $
b1 O
1*
#310
0*
#315
b11111111111111111111111101000000 %
b11111111111111111111111101000000 4
b11111111111111111111111101000000 T
b11111111111111111111111101000000 "
b11111111111111111111111101000000 2
b11111111111111111111111101000000 f
b11111111111111111111111101000000 !"
b11111111111111111111111101000000 ("
1L
b100 Q
b10 $
b10 O
1*
#320
0*
#325
1P
b0 Q
b100 $
b100 O
1*
#330
0*
#335
b11111111111111111111111111110100 %
b11111111111111111111111111110100 4
b11111111111111111111111111110100 T
b11111111111111111111111111110100 "
b11111111111111111111111111110100 2
b11111111111111111111111111110100 f
b11111111111111111111111111110100 !"
b11111111111111111111111111110100 ("
0P
0L
0N
b1 Q
b0 $
b0 O
b100000 *"
b10000000000000000100000 &
b10000000000000000100000 5
b10000000000000000100000 n
1*
#340
0*
#345
1X
b11111111111111111111111111110111 %
b11111111111111111111111111110111 4
b11111111111111111111111111110111 T
b11111111111111111111111111110111 "
b11111111111111111111111111110111 2
b11111111111111111111111111110111 f
b11111111111111111111111111110111 !"
b11111111111111111111111111110111 ("
b11111111111111111111111101000000 `
b11111111111111111111111101000000 q
b11111111111111111111111111110111 a
b11111111111111111111111111110111 p
b11111111111111111111111101000000 ]
b11111111111111111111111101000000 %"
b11111111111111111111111111110111 ^
b11111111111111111111111111110111 $"
b1000 Z
b0 '"
b0 #
b0 3
b0 g
b0 r
b0 |
b100 )
b100 J
b100 S
b100 o
b1001 Y
b1001 ""
b1000 [
b1000 ~
b100 \
b100 }
b100000001000 U
b100000001000 e
b1001 c
b1000 d
b10 1
1N
b10 Q
b100000100010010010110011 !
b100000100010010010110011 /
b100000100010010010110011 b
b100000100010010010110011 +"
b1 $
b1 O
1*
#350
0*
#355
b0 %
b0 4
b0 T
b0 "
b0 2
b0 f
b0 !"
b0 ("
1L
b100 Q
b10 $
b10 O
1*
#360
0*
#365
1P
b0 Q
b100 $
b100 O
1*
#370
0*
#375
b11111111111111111111111111110111 %
b11111111111111111111111111110111 4
b11111111111111111111111111110111 T
b11111111111111111111111111110111 "
b11111111111111111111111111110111 2
b11111111111111111111111111110111 f
b11111111111111111111111111110111 !"
b11111111111111111111111111110111 ("
0P
0L
0N
b1 Q
b0 $
b0 O
b100100 *"
b10000000000000000100100 &
b10000000000000000100100 5
b10000000000000000100100 n
1*
#380
0*
#385
b11111111111111111111111101000000 %
b11111111111111111111111101000000 4
b11111111111111111111111101000000 T
b11111111111111111111111101000000 "
b11111111111111111111111101000000 2
b11111111111111111111111101000000 f
b11111111111111111111111101000000 !"
b11111111111111111111111101000000 ("
b10101 `
b10101 q
b11111111111111111111111101000000 a
b11111111111111111111111101000000 p
b10101 ]
b10101 %"
b11111111111111111111111101000000 ^
b11111111111111111111111101000000 $"
b10 Z
0X
b101010101 '"
b11111111111111111111111101010101 #
b11111111111111111111111101010101 3
b11111111111111111111111101010101 g
b11111111111111111111111101010101 r
b11111111111111111111111101010101 |
b101 )
b101 J
b101 S
b101 o
b1010 Y
b1010 ""
b10 [
b10 ~
b1000 \
b1000 }
b1010 U
b1010 e
b1010 c
b10 d
b100 1
1N
b10 Q
b1001000100010100110011 !
b1001000100010100110011 /
b1001000100010100110011 b
b1001000100010100110011 +"
b1 $
b1 O
1*
#390
0*
#395
b11111111111111111111111101010101 %
b11111111111111111111111101010101 4
b11111111111111111111111101010101 T
b11111111111111111111111101010101 "
b11111111111111111111111101010101 2
b11111111111111111111111101010101 f
b11111111111111111111111101010101 !"
b11111111111111111111111101010101 ("
1L
b100 Q
b10 $
b10 O
1*
#400
0*
#405
1P
b0 Q
b100 $
b100 O
1*
#410
0*
#415
b11111111111111111111111101000000 %
b11111111111111111111111101000000 4
b11111111111111111111111101000000 T
b11111111111111111111111101000000 "
b11111111111111111111111101000000 2
b11111111111111111111111101000000 f
b11111111111111111111111101000000 !"
b11111111111111111111111101000000 ("
0P
0L
0N
b1 Q
b0 $
b0 O
b101000 *"
b10000000000000000101000 &
b10000000000000000101000 5
b10000000000000000101000 n
1*
#420
0*
#425
b11111111111111111111111101010101 %
b11111111111111111111111101010101 4
b11111111111111111111111101010101 T
b11111111111111111111111101010101 "
b11111111111111111111111101010101 2
b11111111111111111111111101010101 f
b11111111111111111111111101010101 !"
b11111111111111111111111101010101 ("
b11111111111111111111111101000000 `
b11111111111111111111111101000000 q
b11111111111111111111111101010101 a
b11111111111111111111111101010101 p
b11111111111111111111111101000000 ]
b11111111111111111111111101000000 %"
b11111111111111111111111101010101 ^
b11111111111111111111111101010101 $"
b1000 Z
0X
b101000000 '"
b11111111111111111111111101000000 #
b11111111111111111111111101000000 3
b11111111111111111111111101000000 g
b11111111111111111111111101000000 r
b11111111111111111111111101000000 |
b0 )
b0 J
b0 S
b0 o
b1011 Y
b1011 ""
b1000 [
b1000 ~
b1010 \
b1010 }
b100000001010 U
b100000001010 e
b1011 c
b1000 d
b111 1
1N
b10 Q
b100001010111010110110011 !
b100001010111010110110011 /
b100001010111010110110011 b
b100001010111010110110011 +"
b1 $
b1 O
1*
#430
0*
#435
b11111111111111111111111101000000 %
b11111111111111111111111101000000 4
b11111111111111111111111101000000 T
b11111111111111111111111101000000 "
b11111111111111111111111101000000 2
b11111111111111111111111101000000 f
b11111111111111111111111101000000 !"
b11111111111111111111111101000000 ("
1L
b100 Q
b10 $
b10 O
1*
#440
0*
#445
1P
b0 Q
b100 $
b100 O
1*
#450
0*
#455
b11111111111111111111111101010101 %
b11111111111111111111111101010101 4
b11111111111111111111111101010101 T
b11111111111111111111111101010101 "
b11111111111111111111111101010101 2
b11111111111111111111111101010101 f
b11111111111111111111111101010101 !"
b11111111111111111111111101010101 ("
0P
0L
0N
b1 Q
b0 $
b0 O
b101100 *"
b10000000000000000101100 &
b10000000000000000101100 5
b10000000000000000101100 n
1*
#460
0*
#465
b11111111111111111111111101000000 %
b11111111111111111111111101000000 4
b11111111111111111111111101000000 T
b11111111111111111111111101000000 "
b11111111111111111111111101000000 2
b11111111111111111111111101000000 f
b11111111111111111111111101000000 !"
b11111111111111111111111101000000 ("
b0 `
b0 q
b11111111111111111111111101000000 a
b11111111111111111111111101000000 p
b0 ]
b0 %"
b11111111111111111111111101000000 ^
b11111111111111111111111101000000 $"
b1001 Z
b101000000 '"
b11111111111111111111111101000000 #
b11111111111111111111111101000000 3
b11111111111111111111111101000000 g
b11111111111111111111111101000000 r
b11111111111111111111111101000000 |
b1000 )
b1000 J
b1000 S
b1000 o
b1100 Y
b1100 ""
b1001 [
b1001 ~
b1011 \
b1011 }
b1100 U
b1100 e
b1100 c
b1001 d
b101 1
1N
b10 Q
b100101011101011000110011 !
b100101011101011000110011 /
b100101011101011000110011 b
b100101011101011000110011 +"
b1 $
b1 O
1*
#470
0*
#475
1L
b100 Q
b10 $
b10 O
1*
#480
0*
#485
1P
b0 Q
b100 $
b100 O
1*
#490
0*
#495
0P
0L
0N
b1 Q
b0 $
b0 O
b110000 *"
b10000000000000000110000 &
b10000000000000000110000 5
b10000000000000000110000 n
1*
#500
0*
#505
b101001001 '"
b11111111111111111111111101001001 #
b11111111111111111111111101001001 3
b11111111111111111111111101001001 g
b11111111111111111111111101001001 r
b11111111111111111111111101001001 |
b1001 `
b1001 q
b1001 ]
b1001 %"
b11 Z
b1 )
b1 J
b1 S
b1 o
b1101 Y
b1101 ""
b11 [
b11 ~
b1100 \
b1100 }
b100000001100 U
b100000001100 e
b1101 c
b11 d
b110 1
1N
b10 Q
b1101100110011010110011 !
b1101100110011010110011 /
b1101100110011010110011 b
b1101100110011010110011 +"
b1 $
b1 O
1*
#510
0*
#515
b11111111111111111111111101001001 %
b11111111111111111111111101001001 4
b11111111111111111111111101001001 T
b11111111111111111111111101001001 "
b11111111111111111111111101001001 2
b11111111111111111111111101001001 f
b11111111111111111111111101001001 !"
b11111111111111111111111101001001 ("
1L
b100 Q
b10 $
b10 O
1*
#520
0*
#525
1P
b0 Q
b100 $
b100 O
1*
#530
0*
#535
b11111111111111111111111101000000 %
b11111111111111111111111101000000 4
b11111111111111111111111101000000 T
b11111111111111111111111101000000 "
b11111111111111111111111101000000 2
b11111111111111111111111101000000 f
b11111111111111111111111101000000 !"
b11111111111111111111111101000000 ("
0P
0L
0N
b1 Q
b0 $
b0 O
b110100 *"
b10000000000000000110100 &
b10000000000000000110100 5
b10000000000000000110100 n
1*
#540
0*
#545
b11111111111111111111111111110111 %
b11111111111111111111111111110111 4
b11111111111111111111111111110111 T
b11111111111111111111111111110111 "
b11111111111111111111111111110111 2
b11111111111111111111111111110111 f
b11111111111111111111111111110111 !"
b11111111111111111111111111110111 ("
b0 `
b0 q
b11111111111111111111111111110111 a
b11111111111111111111111111110111 p
b0 ]
b0 %"
b11111111111111111111111111110111 ^
b11111111111111111111111111110111 $"
b10000001001 Z
b111110111 '"
b11111111111111111111111111110111 #
b11111111111111111111111111110111 3
b11111111111111111111111111110111 g
b11111111111111111111111111110111 r
b11111111111111111111111111110111 |
b1010 )
b1010 J
b1010 S
b1010 o
b1110 Y
b1110 ""
b1001 [
b1001 ~
b100 \
b100 }
b10000001110 U
b10000001110 e
b10000001110 c
b10000001001 d
b100000 0
b101 1
1N
b10 Q
b1000000100100100101011100110011 !
b1000000100100100101011100110011 /
b1000000100100100101011100110011 b
b1000000100100100101011100110011 +"
b1 $
b1 O
1*
#550
0*
#555
1L
b100 Q
b10 $
b10 O
1*
#560
0*
#565
1P
b0 Q
b100 $
b100 O
1*
#570
0*
#575
0P
0L
0N
b1 Q
b0 $
b0 O
b111000 *"
b10000000000000000111000 &
b10000000000000000111000 5
b10000000000000000111000 n
1*
#580
0*
#585
b11111111111111111111111101000000 ]
b11111111111111111111111101000000 %"
b100 ^
b100 $"
b0 Z
b101 '"
b101 a
b101 p
b101 #
b101 3
b101 g
b101 r
b101 |
b0 `
b0 q
b11111111111111111111111101000000 %
b11111111111111111111111101000000 4
b11111111111111111111111101000000 T
b11111111111111111111111101000000 "
b11111111111111111111111101000000 2
b11111111111111111111111101000000 f
b11111111111111111111111101000000 !"
b11111111111111111111111101000000 ("
b10 )
b10 J
b10 S
b10 o
1'
1K
b0 Y
b0 ""
b1011 [
b1011 ~
b101 \
b101 }
b0 U
b0 e
b0 c
b1011 d
b100011 _
b0 0
b10 1
b100011 .
1N
b10 Q
b101100101010000000100011 !
b101100101010000000100011 /
b101100101010000000100011 b
b101100101010000000100011 +"
b1 $
b1 O
1*
#590
0*
#595
b11 Q
b10 $
b10 O
1*
#600
0*
#605
b100 Q
b11 $
b11 O
1*
#610
0*
#615
1P
b0 Q
b100 $
b100 O
1*
#620
0*
#625
b101000101 '"
b11111111111111111111111101000101 #
b11111111111111111111111101000101 3
b11111111111111111111111101000101 g
b11111111111111111111111101000101 r
b11111111111111111111111101000101 |
b11111111111111111111111101000000 `
b11111111111111111111111101000000 q
0P
0K
0N
0'
b1 Q
b0 $
b0 O
b111100 *"
b10000000000000000111100 &
b10000000000000000111100 5
b10000000000000000111100 n
1*
#630
0*
#635
b101 '"
b101 #
b101 3
b101 g
b101 r
b101 |
b101 %
b101 4
b101 T
b101 "
b101 2
b101 f
b101 !"
b101 ("
1L
b0 `
b0 q
b1111 Y
b1111 ""
b0 [
b0 ~
b100000001110 U
b100000001110 e
b1111 c
b0 d
b11 _
b11 .
1'
1K
b10 Q
b101010011110000011 !
b101010011110000011 /
b101010011110000011 b
b101010011110000011 +"
b1 $
b1 O
1*
#640
0*
#645
b11 Q
b10 $
b10 O
1*
#650
0*
#655
1(
b100 Q
b11 $
b11 O
1*
#660
0*
#665
1P
1N
b0 Q
b100 $
b100 O
1*
#670
0*
#675
b101000101 '"
b100 %
b100 4
b100 T
b100 "
b100 2
b100 f
b100 !"
b100 ("
b11111111111111111111111101000101 #
b11111111111111111111111101000101 3
b11111111111111111111111101000101 g
b11111111111111111111111101000101 r
b11111111111111111111111101000101 |
b11111111111111111111111101000000 `
b11111111111111111111111101000000 q
0P
0L
0K
0N
0'
0(
b1 Q
b0 $
b0 O
b1000000 *"
b10000000000000001000000 &
b10000000000000001000000 5
b10000000000000001000000 n
1*
#680
0*
#685
b0 ]
b0 %"
b11111111111111111111111101000000 ^
b11111111111111111111111101000000 $"
0X
b101000000 '"
b11111111111111111111111101000000 %
b11111111111111111111111101000000 4
b11111111111111111111111101000000 T
b11111111111111111111111101000000 "
b11111111111111111111111101000000 2
b11111111111111111111111101000000 f
b11111111111111111111111101000000 !"
b11111111111111111111111101000000 ("
b11111111111111111111111101000000 #
b11111111111111111111111101000000 3
b11111111111111111111111101000000 g
b11111111111111111111111101000000 r
b11111111111111111111111101000000 |
b11111111111111111111111101000000 a
b11111111111111111111111101000000 p
b11111111111111111111111111010011 Z
b0 )
b0 J
b0 S
b0 o
1N
b11111111111111111111111111010011 `
b11111111111111111111111111010011 q
b10000 Y
b10000 ""
b10011 [
b10011 ~
b1000 \
b1000 }
b11111111111111111111011111010000 U
b11111111111111111111011111010000 e
b11111111111111111111111111010000 c
b11111111111111111111111111010011 d
b10011 _
b1111110 0
b111 1
b10011 .
1L
1K
b10 Q
b11111101001101000111100000010011 !
b11111101001101000111100000010011 /
b11111101001101000111100000010011 b
b11111101001101000111100000010011 +"
b1 $
b1 O
1*
#690
0*
#695
b100 Q
b10 $
b10 O
1*
#700
0*
#705
1P
b0 Q
b100 $
b100 O
1*
#710
0*
#715
1X
b0 '"
b0 #
b0 3
b0 g
b0 r
b0 |
b0 `
b0 q
0P
0L
0K
0N
b1 Q
b0 $
b0 O
b1000100 *"
b10000000000000001000100 &
b10000000000000001000100 5
b10000000000000001000100 n
1*
#720
0*
